player,player_id,position,team_name,player_game_count,avg_depth_of_target,avoided_tackles,caught_percent,contested_catch_rate,contested_receptions,contested_targets,declined_penalties,drop_rate,drops,first_downs,franchise_id,fumbles,grades_hands_drop,grades_hands_fumble,grades_offense,grades_pass_block,grades_pass_route,inline_rate,inline_snaps,interceptions,longest,pass_block_rate,pass_blocks,pass_plays,penalties,receptions,route_rate,routes,slot_rate,slot_snaps,targeted_qb_rating,targets,touchdowns,wide_rate,wide_snaps,yards,yards_after_catch,yards_after_catch_per_reception,yards_per_reception,yprr
Justin Jefferson,61398,WR,MIN,18,10.7,11,73.0,55.0,22,40,1,4.9,7,83,18,0,83.1,86.0,90.2, ,90.2,0.0,0,5,64,0.0,0,777,4,135,93.8,729,29.0,225,107.9,185,8,70.0,544,1857,639,4.7,13.8,2.55
Travis Kelce,7844,TE,KC,20,7.5,25,75.3,45.5,10,22,0,4.2,6,92,16,2,88.2,51.7,91.3,73.1,91.6,26.0,202,3,52,3.6,28,776,4,137,90.6,703,44.2,343,123.8,182,16,29.1,226,1596,772,5.6,11.6,2.27
Tyreek Hill,10799,WR,MIA,18,12.6,12,69.6,50.0,13,26,1,3.8,5,81,17,1,89.7,67.1,92.1, ,92.0,1.1,7,7,64,0.0,0,614,5,126,94.3,579,42.3,260,97.8,181,7,54.4,334,1779,524,4.2,14.1,3.07
Davante Adams,8688,WR,LV,17,12.8,16,59.5,44.1,15,34,0,5.7,6,66,23,1,76.9,59.2,90.1,66.1,90.5,0.0,0,6,60,0.2,1,657,2,100,94.1,618,30.0,197,102.2,168,14,69.6,457,1516,502,5.0,15.2,2.45
CeeDee Lamb,61570,WR,DAL,19,10.3,16,72.5,46.7,14,30,1,5.5,7,75,9,0,78.9,86.0,86.2, ,87.0,0.3,2,5,46,0.0,0,678,4,121,95.3,646,62.7,425,108.5,167,10,36.1,245,1544,555,4.6,12.8,2.39
Stefon Diggs,9579,WR,BUF,18,12.6,15,71.7,46.2,12,26,2,7.0,9,78,4,1,69.7,62.0,89.1, ,89.0,0.0,0,1,53,0.0,0,695,5,119,94.7,658,34.2,238,121.0,166,11,65.8,457,1578,440,3.7,13.3,2.4
A.J. Brown,48327,WR,PHI,20,13.0,20,63.9,46.9,15,32,0,6.5,7,67,24,2,68.5,34.4,87.7, ,88.9,0.0,0,3,78,0.0,0,702,2,101,94.7,665,25.8,181,116.1,158,12,74.1,520,1642,619,6.1,16.3,2.47
Ja'Marr Chase,84270,WR,CIN,15,9.8,18,69.0,37.5,12,32,0,5.3,6,69,7,2,79.1,37.9,83.9, ,85.2,0.1,1,4,60,0.0,0,692,4,107,93.1,644,23.7,164,106.5,155,11,75.6,523,1266,509,4.8,11.8,1.97
DeVonta Smith,61100,WR,PHI,20,10.2,15,71.4,41.9,13,31,0,5.2,6,64,24,1,79.8,84.7,80.4, ,81.1,0.0,0,1,45,0.0,0,736,2,110,94.7,697,25.0,184,113.9,154,8,75.0,552,1393,561,5.1,12.7,2.0
D.K. Metcalf,47864,WR,SEA,18,12.2,7,65.8,51.1,24,47,1,4.8,5,54,29,2,81.4,32.2,77.7, ,78.7,0.0,0,4,54,0.0,0,653,8,100,94.0,614,16.5,108,95.9,152,8,83.5,545,1184,276,2.8,11.8,1.93
Chris Godwin,11839,WR,TB,16,5.7,11,76.0,57.1,16,28,0,4.2,5,58,30,2,85.9,38.7,75.7,73.9,76.8,0.1,1,1,44,0.3,2,682,4,114,93.8,640,73.0,498,100.1,150,3,26.7,182,1108,578,5.1,9.7,1.73
Christian Kirk,47546,WR,JAX,19,9.6,8,66.0,34.8,8,23,0,8.3,9,62,15,1,65.9,85.2,72.9,62.3,75.3,0.3,2,5,49,0.1,1,744,1,99,95.0,707,75.5,562,99.8,150,10,23.4,174,1238,431,4.4,12.5,1.75
Diontae Johnson,33441,WR,PIT,17,10.7,15,61.0,36.4,8,22,1,8.5,8,45,25,1,57.6,57.4,69.6, ,69.9,0.0,0,6,37,0.0,0,659,6,86,93.2,614,13.1,86,61.2,141,0,86.9,573,882,243,2.8,10.3,1.44
Michael Pittman Jr.,29049,WR,IND,16,7.7,5,71.2,50.0,15,30,0,4.8,5,51,14,2,81.4,34.3,70.6, ,70.3,0.1,1,3,28,0.0,0,674,1,99,95.1,641,27.2,183,89.8,139,4,72.7,490,925,343,3.5,9.3,1.44
Amon-Ra St. Brown,84470,WR,DET,16,6.7,9,76.3,38.5,5,13,0,3.6,4,68,11,0,88.1,84.9,90.7,64.9,90.4,0.4,2,1,49,0.2,1,511,0,106,94.5,483,59.9,306,111.8,139,6,38.7,198,1161,544,5.1,11.0,2.4
Garrett Wilson,97405,WR,NYJ,17,11.0,22,59.7,35.9,14,39,1,2.4,2,56,22,1,90.1,28.2,82.7,35.6,85.9,1.3,8,1,60,0.3,2,615,5,83,96.7,595,36.1,222,91.5,139,4,62.6,385,1103,389,4.7,13.3,1.85
Zay Jones,11792,WR,JAX,18,9.6,9,69.3,38.9,7,18,0,7.8,8,49,15,0,59.4,83.6,66.5,75.6,67.1,0.0,0,4,59,0.4,3,706,0,95,94.5,667,33.9,239,92.1,137,6,66.1,467,980,327,3.4,10.3,1.47
T.J. Hockenson,40912,TE,MIN,18,7.8,10,72.2,57.6,19,33,0,5.9,6,49,18,1,75.5,83.4,73.2,52.8,76.4,48.2,342,4,81,10.0,71,709,6,96,85.2,604,35.3,250,97.4,133,6,16.5,117,1043,489,5.1,10.9,1.73
Mike Evans,8642,WR,TB,16,14.1,7,62.4,64.3,18,28,1,4.6,4,58,30,0,75.1,82.4,74.2, ,75.7,0.0,0,7,63,0.0,0,729,4,83,94.4,688,25.9,189,85.0,133,6,74.1,540,1207,244,2.9,14.5,1.75
Austin Ekeler,12164,HB,LAC,18,-0.8,28,86.5,40.0,2,5,1,4.4,5,37,27,2,84.3,48.5,80.0,29.9,79.8,0.0,0,0,23,10.8,58,536,1,109,86.2,462,8.8,47,103.6,126,5,3.2,17,717,857,7.9,6.6,1.55
Amari Cooper,9437,WR,CLV,17,13.3,7,61.9,55.6,15,27,0,7.1,6,61,8,0,67.4,82.1,81.2, ,83.6,0.0,0,3,55,0.0,0,603,5,78,93.2,562,24.9,150,105.9,126,9,75.0,452,1160,296,3.8,14.9,2.06
Tee Higgins,61211,WR,CIN,19,12.0,9,69.6,57.6,19,33,0,4.4,4,54,7,0,81.8,82.7,78.4,22.3,78.8,0.3,2,3,59,0.0,0,692,2,87,94.7,655,17.8,123,110.6,125,8,81.9,567,1177,310,3.6,13.5,1.8
Brandon Aiyuk,84109,WR,SF,20,11.1,16,69.4,39.1,9,23,0,6.7,6,53,28,1,70.7,54.5,78.7, ,79.5,0.0,0,1,54,0.0,0,654,3,84,94.5,618,24.6,161,117.2,121,8,75.4,493,1124,397,4.7,13.4,1.82
Jaylen Waddle,84088,WR,MIA,18,12.7,7,64.5,22.7,5,22,0,10.3,9,61,17,1,51.1,53.1,82.6,65.7,83.5,0.0,0,2,84,0.2,1,605,1,78,94.0,569,25.6,155,119.2,121,8,73.2,443,1400,526,6.7,17.9,2.46
Mark Andrews,47436,TE,BLT,16,10.2,3,65.5,52.6,10,19,0,4.9,4,51,3,1,78.6,53.2,80.7,67.1,79.4,13.6,67,4,36,0.2,1,491,1,78,94.9,466,64.8,318,88.9,119,5,21.6,106,920,284,3.6,11.8,1.97
Tyler Lockett,9502,WR,SEA,17,11.1,5,76.9,35.7,5,14,0,3.2,3,53,29,1,87.7,33.7,77.9,65.3,77.7,0.8,5,6,40,0.2,1,604,1,90,94.0,568,41.7,252,108.6,117,9,56.8,343,1072,280,3.1,11.9,1.89F
Christian McCaffrey,11763,HB,SF,20,1.2,21,83.6,44.4,4,9,0,3.0,3,40,28,0,89.7,89.4,90.4,51.8,92.4,0.9,5,1,49,9.0,50,554,0,97,86.5,479,13.4,74,109.1,116,6,7.4,41,802,768,7.9,8.3,1.67
Terry McLaurin,48229,WR,WAS,17,13.1,11,67.0,65.4,17,26,0,3.8,3,56,32,0,82.8,52.7,79.9, ,83.0,0.0,0,2,52,0.0,0,621,2,77,93.9,583,20.9,130,108.3,115,5,78.9,490,1191,396,5.1,15.5,2.04
Chris Olave,84355,WR,NO,15,14.9,2,63.2,33.3,8,24,2,4.0,3,48,20,2,81.9,27.4,82.5, ,82.9,0.2,1,5,53,0.0,0,450,3,72,95.8,431,33.8,152,86.3,114,4,66.0,297,1044,219,3.0,14.5,2.42
Drake London,86519,WR,ATL,17,11.2,8,63.2,53.8,14,26,1,2.7,2,47,2,3,88.0,23.3,83.2, ,85.3,0.0,0,3,40,0.0,0,439,2,72,95.4,419,21.6,95,87.1,114,4,78.4,344,866,231,3.2,12.0,2.07
Evan Engram,11778,TE,JAX,19,6.1,13,74.6,38.9,7,18,0,4.5,4,42,15,0,76.2,82.8,67.6,59.4,68.3,34.0,229,2,36,4.5,30,673,4,85,91.2,614,41.6,280,104.1,114,5,23.3,157,890,573,6.7,10.5,1.45
JuJu Smith-Schuster,11817,WR,KC,19,7.1,9,80.7,46.7,7,15,0,3.3,3,54,16,3,86.8,24.7,70.1,71.3,72.1,0.0,0,3,53,0.3,2,641,3,88,94.9,608,42.1,270,103.4,109,3,57.9,371,1022,487,5.5,11.6,1.68
D.J. Moore,48267,WR,CAR,17,14.0,9,57.8,56.5,13,23,1,4.5,3,44,5,0,77.9,82.1,73.9, ,76.2,0.7,4,5,62,0.0,0,540,5,63,94.4,510,27.6,149,86.5,109,7,71.5,386,888,191,3.0,14.1,1.74
Adam Thielen,8288,WR,MIN,18,10.8,1,68.2,21.1,4,19,0,1.4,1,48,18,0,90.4,81.7,65.5,65.0,66.3,0.0,0,3,36,0.5,4,756,1,73,94.0,711,33.3,252,95.8,107,6,66.7,504,766,165,2.3,10.5,1.08
Deebo Samuel,48274,WR,SF,16,5.1,36,65.1,26.7,4,15,0,6.8,5,32,28,0,68.4,26.7,74.1,78.7,81.6,0.4,2,3,74,1.0,5,484,1,69,94.2,456,27.1,131,87.1,106,3,60.1,291,843,659,9.6,12.2,1.85
Gabriel Davis,55410,WR,BUF,17,16.8,2,52.8,30.8,8,26,0,11.1,7,42,4,1,50.4,42.6,66.4, ,66.5,0.4,3,6,98,0.0,0,705,3,56,94.8,668,10.2,72,86.3,106,8,89.4,630,982,150,2.7,17.5,1.47
Courtland Sutton,48164,WR,DEN,15,13.3,3,60.4,42.4,14,33,0,8.6,6,38,10,0,60.7,81.0,69.3, ,69.7,0.2,1,4,51,0.0,0,576,5,64,93.2,537,11.3,65,75.6,106,2,88.5,510,830,135,2.1,13.0,1.55
Dalton Schultz,47304,TE,DAL,17,8.0,7,66.3,58.8,10,17,1,8.0,6,34,9,1,63.2,47.6,68.3,51.1,67.8,45.2,252,5,30,7.9,44,558,5,69,87.5,488,39.2,219,91.0,104,8,12.9,72,699,225,3.3,10.1,1.43
Tyler Higbee,10744,TE,LA,17,3.2,6,69.2,18.2,2,11,0,7.7,6,31,26,0,63.7,81.8,62.7,61.1,66.2,66.5,358,3,26,17.3,93,538,1,72,80.7,434,13.6,73,82.2,104,3,19.9,107,620,410,5.7,8.6,1.43
Josh Palmer,62979,WR,LAC,17,9.5,6,71.8,50.0,7,14,0,6.3,5,41,27,1,71.2,50.1,64.6,64.9,65.6,0.1,1,2,50,0.1,1,689,1,74,96.5,665,25.4,175,95.9,103,3,74.5,513,799,261,3.5,10.8,1.2
Marquise Brown,61568,WR,ARZ,12,11.7,3,65.0,64.7,11,17,0,4.3,3,32,1,1,79.5,47.7,69.2, ,69.6,0.0,0,7,47,0.0,0,523,2,67,94.1,492,35.0,183,66.4,103,3,64.6,338,709,243,3.6,10.6,1.44
Jerry Jeudy,61103,WR,DEN,15,12.1,5,68.0,27.3,3,11,0,8.1,6,42,10,0,62.8,81.5,78.4, ,77.9,0.0,0,2,67,0.0,0,479,1,68,94.4,452,54.1,259,111.5,100,6,45.9,220,987,418,6.1,14.5,2.18
Allen Lazard,48135,WR,GB,15,12.9,3,61.2,39.1,9,23,0,6.3,4,45,12,0,69.7,80.8,69.0,69.8,73.9,3.7,19,5,47,0.2,1,517,4,60,94.4,488,37.7,195,85.8,98,6,58.6,303,788,266,4.4,13.1,1.61
Pat Freiermuth,84085,TE,PIT,16,8.4,11,65.6,41.7,10,24,1,4.5,3,37,25,0,78.8,80.8,75.5,72.3,78.3,58.2,288,4,57,6.1,30,495,4,63,87.9,435,36.4,180,78.1,96,2,5.3,26,732,289,4.6,11.6,1.68
Donovan Peoples-Jones,61439,WR,CLV,17,12.9,2,64.2,37.9,11,29,0,4.7,3,33,8,1,77.5,61.2,64.9,66.2,67.7,0.0,0,2,42,0.2,1,616,8,61,93.0,573,29.9,184,94.1,95,3,70.0,431,839,195,3.2,13.8,1.46
Cooper Kupp,11824,WR,LA,9,7.5,13,78.9,53.8,7,13,0,1.3,1,42,26,2,90.4,53.5,86.3,77.6,88.1,0.0,0,4,75,0.9,3,351,0,75,96.3,338,55.6,195,105.8,95,6,43.3,152,812,419,5.6,10.8,2.4
Keenan Allen,7857,WR,LAC,11,8.9,1,76.6,41.7,5,12,0,0.0,0,43,27,1,91.0,48.0,84.4,72.2,84.4,0.0,0,2,46,0.7,3,418,0,72,96.4,403,64.6,270,108.3,94,4,34.4,144,837,311,4.3,11.6,2.08
DeAndre Hopkins,7808,WR,ARZ,9,10.7,5,68.8,52.4,11,21,0,1.5,1,35,1,2,90.1,25.5,72.9, ,73.5,0.0,0,4,33,0.0,0,388,1,64,93.3,362,27.3,106,84.4,93,3,72.7,282,717,177,2.8,11.2,1.98
Jakobi Meyers,47468,WR,NE,14,10.2,2,72.0,56.5,13,23,0,1.5,1,38,19,1,90.3,48.3,75.6, ,75.8,0.0,0,0,48,0.0,0,453,3,67,93.4,423,69.5,315,119.6,93,6,29.6,134,803,242,3.6,12.0,1.9
George Kittle,11901,TE,SF,18,8.0,11,77.8,56.3,9,16,1,2.8,2,43,28,1,88.1,49.7,84.7,42.7,87.8,57.1,337,2,54,7.6,45,590,5,70,87.6,517,30.2,178,140.0,90,11,11.0,65,929,444,6.3,13.3,1.8
Mike Williams,11762,WR,LAC,13,12.7,4,70.0,57.7,15,26,0,1.6,1,39,27,0,90.0,80.6,78.9, ,79.3,0.0,0,2,55,0.0,0,481,0,63,96.5,464,15.0,72,107.4,90,4,85.0,409,895,321,5.1,14.2,1.93
Gerald Everett,11799,TE,LAC,17,6.0,18,71.9,57.1,8,14,0,7.2,5,34,27,0,66.1,80.8,70.6,76.5,73.4,45.4,236,2,26,6.9,36,520,1,64,91.0,473,39.2,204,102.5,89,5,14.6,76,664,413,6.5,10.4,1.4
Mack Hollins,11873,WR,LV,17,13.1,5,64.0,40.0,6,15,0,6.6,4,34,23,0,68.2,80.7,63.8,77.9,61.4,0.2,1,3,60,0.6,4,646,7,57,93.7,605,14.2,92,88.7,89,4,85.6,553,690,206,3.6,12.1,1.14
Marvin Jones Jr.,7158,WR,JAX,18,14.6,1,56.8,58.8,10,17,1,10.7,6,33,15,0,58.1,79.3,59.8,67.4,60.0,0.0,0,3,37,0.2,1,581,1,50,95.5,555,13.6,79,77.8,88,4,86.4,502,579,111,2.2,11.6,1.04
K.J. Osborn,23503,WR,MIN,18,8.7,6,70.5,38.5,5,13,0,0.0,0,33,18,1,90.9,46.6,65.2,71.5,65.3,0.0,0,2,66,0.6,4,665,2,62,93.5,622,58.2,387,105.8,88,6,41.7,277,670,306,4.9,10.8,1.08
Brandin Cooks,8655,WR,HST,13,11.9,1,63.6,55.6,10,18,0,9.7,6,29,13,0,57.2,80.6,72.3, ,71.9,0.2,1,4,44,0.0,0,450,1,56,94.9,427,24.7,111,80.6,88,3,74.9,337,699,198,3.5,12.5,1.64
Rhamondre Stevenson,98689,HB,NE,17,-0.5,21,79.3, ,0,0,0,6.8,5,13,19,2,69.4,50.3,81.3,64.8,68.0,0.4,2,0,40,19.7,88,447,0,69,75.8,339,8.5,38,90.7,87,1,2.9,13,421,499,7.2,6.1,1.24
Curtis Samuel,11795,WR,WAS,17,6.9,7,73.6,44.4,8,18,0,4.5,3,36,32,0,79.6,61.0,70.5,69.2,70.2,0.2,1,2,49,0.2,1,546,1,64,93.6,511,71.2,389,100.5,87,4,25.3,138,655,293,4.6,10.2,1.28
Tyler Boyd,10689,WR,CIN,19,10.2,3,73.6,66.7,12,18,0,1.5,1,46,7,0,90.1,81.3,70.2,54.6,70.4,0.4,3,5,60,0.6,4,692,0,64,93.2,645,84.7,586,99.4,87,5,14.9,103,851,260,4.1,13.3,1.32
Marquez Valdes-Scantling,47809,WR,KC,20,15.1,1,56.3,40.0,6,15,0,9.3,5,39,16,0,57.3,79.4,64.8, ,65.6,0.4,3,1,57,0.0,0,682,2,49,94.3,643,39.7,271,98.3,87,4,59.8,408,809,167,3.4,16.5,1.26
Parris Campbell,47940,WR,IND,17,6.5,13,74.1,33.3,4,12,0,4.5,3,32,14,1,71.3,81.3,60.8, ,61.2,0.2,1,6,49,0.0,0,635,2,63,95.0,603,82.0,521,76.7,85,3,17.8,113,623,285,4.5,9.9,1.03
Dallas Goedert,47272,TE,PHI,15,5.9,7,83.5,64.3,9,14,0,2.7,2,47,24,1,87.7,50.3,78.2,57.0,83.5,44.0,227,0,31,4.3,22,516,4,71,91.1,470,44.6,230,123.7,85,4,10.5,54,843,484,6.8,11.9,1.79
George Pickens,99229,WR,PIT,17,15.6,7,61.9,67.9,19,28,0,7.1,4,38,25,0,67.8,80.6,68.8, ,69.3,0.3,2,0,42,0.0,0,619,3,52,93.7,580,13.1,81,109.3,84,4,86.6,536,801,110,2.1,15.4,1.38
Darius Slayton,25578,WR,NYG,18,12.4,4,61.4,42.9,9,21,0,13.6,8,34,21,2,39.1,24.7,66.0,67.3,66.9,0.4,2,3,55,0.2,1,508,1,51,94.5,480,27.4,139,87.2,83,2,72.0,366,816,313,6.1,16.0,1.7
Tyler Conklin,47124,TE,NYJ,17,7.9,3,69.9,69.2,9,13,0,6.5,4,25,22,2,69.3,43.1,58.6,37.6,60.6,60.9,347,4,30,10.9,62,570,2,58,85.4,487,29.5,168,80.0,83,3,9.3,53,552,282,4.9,9.5,1.13
Robert Woods,7822,WR,TEN,17,8.7,0,64.6,46.7,7,15,0,7.0,4,31,31,0,66.6,57.3,68.0, ,66.0,0.4,2,3,41,0.0,0,491,1,53,94.5,464,26.7,131,75.6,82,2,72.1,354,527,160,3.0,9.9,1.14
Saquon Barkley,45791,HB,NYG,18,-0.5,9,78.0,28.6,2,7,0,8.6,6,15,21,0,56.0,89.5,80.3,71.3,58.4,4.0,22,1,41,15.3,84,549,0,64,80.5,442,5.3,29,82.7,82,0,4.2,23,415,537,8.4,6.5,0.94
Richie James Jr.,28991,WR,NYG,17,6.6,2,82.9,58.3,7,12,0,4.2,3,34,21,0,80.4,29.0,72.0,68.1,72.7,0.2,1,0,33,0.5,2,428,2,68,94.4,404,84.6,362,116.0,82,4,15.0,64,651,232,3.4,9.6,1.61
Hayden Hurst,47294,TE,CIN,16,5.6,5,79.3,61.5,8,13,0,3.0,2,32,7,1,85.6,45.9,64.5,41.0,66.0,51.9,273,1,29,3.0,16,526,3,65,91.8,483,28.3,149,102.0,82,3,18.1,95,555,244,3.8,8.5,1.15
Michael Gallup,26075,WR,DAL,16,12.6,2,55.0,47.6,10,21,0,8.3,4,29,9,0,60.5,78.5,62.6, ,61.9,0.0,0,5,27,0.0,0,514,0,44,95.7,492,8.0,41,67.2,80,5,92.0,473,470,120,2.7,10.7,0.96
Leonard Fournette,11759,HB,TB,17,-0.7,21,92.5,66.7,2,3,0,5.1,4,27,30,0,76.7,90.9,66.5,27.5,78.0,0.0,0,0,44,12.1,61,505,1,74,82.8,418,1.2,6,106.7,80,3,3.4,17,529,583,7.9,7.1,1.27
Joe Mixon,11803,HB,CIN,17,0.0,12,86.1,25.0,1,4,0,6.8,5,18,7,0,69.0,91.3,80.8,34.9,77.0,0.0,0,0,35,15.3,64,418,1,68,80.1,335,4.5,19,101.0,79,2,9.8,41,491,530,7.8,7.2,1.47
David Njoku,11784,TE,CLV,14,7.8,6,73.4,53.8,7,13,0,6.5,4,36,8,1,70.2,43.5,73.7,76.3,78.7,52.2,251,2,38,9.1,44,481,1,58,84.2,405,35.8,172,102.7,79,4,11.2,54,628,341,5.9,10.8,1.55
Demarcus Robinson,10760,WR,BLT,18,10.3,8,64.1,44.4,4,9,0,9.1,5,24,3,2,58.1,24.4,65.4, ,64.8,0.0,0,4,41,0.0,0,396,1,50,95.5,378,7.8,31,74.0,78,3,92.2,365,507,164,3.3,10.1,1.34
Russell Gage,44771,WR,TB,14,5.9,4,67.9,60.0,6,10,0,8.6,5,31,30,1,61.2,40.0,65.3, ,64.5,0.0,0,1,23,0.0,0,424,0,53,95.3,404,34.0,144,98.0,78,5,66.0,280,436,188,3.5,8.2,1.08
Dawson Knox,35883,TE,BUF,17,8.4,4,72.7,36.4,4,11,0,8.2,5,31,4,0,61.6,80.0,66.5,65.2,64.5,31.3,193,3,45,7.3,45,616,1,56,88.1,543,47.2,291,109.3,77,7,13.8,85,602,232,4.1,10.8,1.11
Alec Pierce,78038,WR,IND,16,12.2,3,53.9,42.9,12,28,0,8.9,4,28,14,1,51.5,29.9,61.3, ,61.1,0.0,0,2,47,0.0,0,501,1,41,95.4,478,6.8,34,77.4,76,2,93.2,467,593,111,2.7,14.5,1.24
Chase Claypool,42312,WR,CHI,15,11.0,3,60.5,47.4,9,19,1,4.2,2,24,6,1,77.0,41.9,61.8,69.6,62.7,0.4,2,5,31,0.4,2,454,2,46,93.2,423,60.6,275,54.2,76,1,39.0,177,451,142,3.1,9.8,1.07
Jerick McKinnon,8731,HB,KC,20,0.6,10,80.0,0.0,0,1,0,7.7,5,29,16,1,64.0,70.9,57.5,28.6,69.9,2.2,11,1,56,15.2,77,506,3,60,78.1,395,4.2,21,131.0,75,9,5.5,28,545,577,9.6,9.1,1.38
Noah Brown,11993,WR,DAL,18,11.1,6,63.5,40.9,9,22,0,7.8,4,27,9,1,63.2,34.5,59.5,77.0,61.2,0.0,0,4,51,1.8,9,512,2,47,93.0,476,44.5,228,79.4,74,3,55.5,284,594,160,3.4,12.6,1.25
Aaron Jones,11937,HB,GB,17,-0.2,8,81.9,100.0,3,3,0,9.2,6,19,12,2,57.2,37.4,86.1,50.6,64.6,5.7,21,0,30,10.8,40,371,0,59,85.2,316,11.6,43,112.7,72,5,12.9,48,395,482,8.2,6.7,1.25
Chris Moore,10741,WR,HST,16,9.6,10,66.7,42.9,6,14,1,5.9,3,24,13,0,70.9,79.5,63.2,70.0,64.2,1.1,5,3,52,0.4,2,464,1,48,95.0,441,65.1,302,81.3,72,2,33.8,157,548,267,5.6,11.4,1.24
Alvin Kamara,11822,HB,NO,15,1.2,15,80.3,25.0,1,4,0,8.1,5,17,20,2,61.9,49.9,72.7,20.2,65.4,0.0,0,0,54,13.8,49,356,0,57,82.9,295,4.2,15,104.8,71,2,6.5,23,490,469,8.2,8.6,1.66
Cole Kmet,60995,TE,CHI,17,8.2,6,72.5,33.3,2,6,0,3.8,2,27,6,1,79.6,39.0,67.6,68.8,66.1,43.2,221,5,50,11.5,59,511,5,50,83.8,428,42.3,216,98.9,69,7,13.3,68,544,293,5.9,10.9,1.27
Cade Otton,61071,TE,TB,17,6.0,3,66.7,14.3,1,7,0,6.1,3,23,30,0,64.5,79.8,58.2,79.3,56.6,39.4,225,0,35,5.3,30,571,3,46,89.3,510,49.6,283,94.4,69,2,10.5,60,449,234,5.1,9.8,0.88
DeAndre Carter,9859,WR,LAC,18,9.5,1,71.6,30.0,3,10,0,4.0,2,30,27,1,77.9,51.8,61.6,68.8,63.9,0.4,2,1,35,0.6,3,534,0,48,96.3,514,58.4,312,105.0,67,3,40.4,216,555,211,4.4,11.6,1.08
Zach Ertz,7816,TE,ARZ,10,8.0,4,71.2,38.5,5,13,0,6.0,3,24,1,0,85.8,79.7,62.5,29.6,66.6,25.8,106,1,32,1.9,8,411,5,47,91.2,375,57.7,237,100.9,66,4,13.6,56,406,136,2.9,8.6,1.08
Christian Watson,66581,WR,GB,14,14.3,4,63.1,75.0,9,12,0,10.9,5,28,12,0,50.7,80.1,77.1, ,77.8,1.1,3,1,63,0.0,0,282,0,41,95.7,270,31.6,89,123.3,65,7,67.0,189,611,264,6.4,14.9,2.26
Noah Fant,42388,TE,SEA,18,6.9,1,78.5,0.0,0,6,0,0.0,0,25,29,0,90.5,79.6,64.5,54.9,68.2,40.1,177,0,51,9.3,41,441,2,51,83.9,370,41.3,182,119.0,65,4,14.3,63,497,237,4.6,9.7,1.34
Greg Dortch,42237,WR,ARZ,16,4.6,13,81.3,36.4,4,11,1,0.0,0,19,1,0,90.5,88.4,64.2, ,67.6,0.0,0,0,47,0.0,0,366,3,52,94.5,346,82.8,303,107.1,64,2,15.8,58,461,308,5.9,8.9,1.33
Romeo Doubs,84329,WR,GB,13,9.8,1,65.6,33.3,5,15,0,10.6,5,20,12,2,51.5,23.5,62.6, ,62.0,0.0,0,0,26,0.0,0,331,0,42,94.3,312,22.4,74,100.1,64,3,77.6,257,425,194,4.6,10.1,1.36
Isaiah McKenzie,11927,WR,BUF,16,7.9,7,68.8,44.4,4,9,0,10.2,5,27,4,0,53.0,81.8,66.0, ,65.9,0.0,0,2,30,0.0,0,417,0,44,94.7,395,80.3,335,95.4,64,4,19.4,81,433,145,3.3,9.8,1.1
Nico Collins,61441,WR,HST,10,12.8,3,57.8,75.0,12,16,0,0.0,0,21,13,0,90.0,77.6,72.4, ,72.0,0.0,0,1,58,0.0,0,305,1,37,93.8,286,9.8,30,85.5,64,2,90.2,275,481,144,3.9,13.0,1.68
Robert Tonyan,12193,TE,GB,17,6.0,3,84.1,50.0,3,6,1,1.9,1,20,12,0,88.0,79.8,57.7,35.3,60.5,42.8,171,2,24,2.5,10,400,3,53,92.5,370,37.8,151,95.1,63,2,19.5,78,470,244,4.6,8.9,1.27
D'Andre Swift,57212,HB,DET,14,0.4,10,76.2,0.0,0,2,0,7.7,4,17,11,1,56.6,71.7,78.1,73.9,66.0,0.0,0,0,25,8.9,24,271,0,48,87.1,236,5.9,16,107.2,63,3,10.0,27,389,457,9.5,8.1,1.65
Kalif Raymond,11028,WR,DET,17,10.0,2,75.8,42.9,3,7,0,0.0,0,24,11,1,90.3,40.8,72.1,72.0,72.7,0.6,2,0,56,0.6,2,346,0,47,93.1,322,46.0,159,106.7,62,0,52.3,181,616,227,4.8,13.1,1.91
Josh Jacobs,45953,HB,LV,17,0.4,5,86.9,100.0,1,1,0,5.4,3,16,23,1,75.7,73.8,91.6,56.3,64.8,0.0,0,0,43,19.0,85,447,0,53,76.3,341,1.1,5,94.0,61,0,7.2,32,400,381,7.2,7.5,1.17
Juwan Johnson,28305,TE,NO,16,9.8,8,68.9,36.4,4,11,0,6.7,3,24,20,0,59.1,78.3,64.7,65.6,66.5,34.9,141,2,41,5.4,22,404,2,42,90.3,365,50.0,202,118.8,61,7,14.9,60,508,163,3.9,12.1,1.39
Olamide Zaccheaus,44920,WR,ATL,17,11.8,7,65.6,40.0,2,5,1,2.4,1,25,2,1,82.3,30.0,64.6,69.4,67.4,0.0,0,0,45,0.8,3,386,3,40,93.8,362,60.9,235,109.5,61,3,38.9,150,533,202,5.1,13.3,1.47
Rachaad White,131633,HB,TB,18,-0.4,12,90.0,100.0,1,1,0,3.6,2,15,30,1,81.4,49.3,68.2,48.9,71.6,0.0,0,0,20,13.4,47,352,0,54,82.7,291,2.8,10,100.4,60,2,4.3,15,326,361,6.7,6.0,1.12
Jauan Jennings,48027,WR,SF,19,9.7,6,65.0,50.0,3,6,1,9.3,4,27,28,1,52.8,29.6,68.1,57.0,68.6,0.0,0,3,44,0.8,3,373,3,39,94.1,351,54.2,202,74.5,60,1,45.8,171,483,185,4.7,12.4,1.38
Elijah Moore,84302,WR,NYJ,16,12.6,11,62.7,16.7,1,6,1,0.0,0,22,22,1,90.0,78.7,57.5, ,58.1,0.2,1,1,42,0.0,0,514,2,37,96.3,495,49.6,255,84.4,59,1,50.2,258,446,96,2.6,12.1,0.9
Darnell Mooney,48236,WR,CHI,12,12.6,3,69.0,83.3,5,6,0,2.4,1,20,6,0,82.2,78.2,69.2,68.2,68.9,0.0,0,2,56,0.6,2,337,0,40,92.6,312,60.5,204,92.1,58,2,38.0,128,493,170,4.3,12.3,1.58
Bennett Skowronek,27948,WR,LA,14,8.0,2,67.2,40.0,2,5,0,2.5,1,16,26,0,81.8,78.1,57.2,78.7,56.4,1.6,7,2,32,5.4,24,444,2,39,92.6,411,43.9,195,70.8,58,0,50.0,222,376,143,3.7,9.6,0.91
Dalvin Cook,11796,HB,MIN,18,-0.8,11,77.6,14.3,1,7,0,8.2,4,17,18,1,55.9,56.9,68.1,49.2,62.2,8.4,49,0,64,24.0,140,583,1,45,72.6,423,1.4,8,100.1,58,2,6.2,36,305,358,8.0,6.8,0.72
Corey Davis,11760,WR,NYJ,13,14.5,0,55.2,47.4,9,19,0,8.6,3,28,22,0,60.5,77.0,65.9,79.8,67.9,1.4,6,2,66,0.5,2,416,5,32,95.2,396,18.3,76,83.7,58,2,80.3,334,536,116,3.6,16.8,1.35
Samaje Perine,11869,HB,CIN,19,-0.5,13,80.7, ,0,0,0,4.2,2,13,7,0,77.3,89.9,72.9,73.8,62.7,0.3,1,0,32,16.6,66,398,0,46,77.4,308,8.3,33,113.6,57,4,5.5,22,322,378,8.2,7.0,1.05
Antonio Gibson,78050,HB,WAS,15,1.2,12,80.7,40.0,2,5,0,6.1,3,18,32,0,70.5,80.0,76.3,75.1,80.5,0.0,0,1,26,14.3,42,294,0,46,81.0,238,7.5,22,96.9,57,2,11.9,35,353,305,6.6,7.7,1.48
Hunter Henry,10669,TE,NE,17,7.9,2,71.9,44.4,4,9,0,6.8,3,23,19,0,66.9,78.6,58.1,64.5,61.4,43.3,210,1,39,8.7,42,485,4,41,86.4,419,43.3,210,103.6,57,2,10.3,50,509,206,5.0,12.4,1.21
Logan Thomas,8755,TE,WAS,14,7.0,0,68.4,60.0,6,10,0,4.9,2,15,32,0,75.1,78.3,52.0,34.1,57.6,25.7,107,2,27,8.2,34,417,3,39,87.8,366,63.5,265,73.9,57,1,10.3,43,323,131,3.4,8.3,0.88
James Conner,11860,HB,ARZ,13,-1.3,17,82.1, ,0,0,0,11.5,6,13,1,0,54.5,54.4,69.7,73.8,51.4,0.2,1,1,22,19.5,84,430,1,46,77.2,332,10.7,46,87.6,56,1,6.5,28,301,386,8.4,6.5,0.91
Isaiah Likely,83955,TE,BLT,17,7.4,4,64.3,54.5,6,11,0,10.0,4,18,3,0,55.3,77.9,65.0,35.5,62.9,18.6,58,1,34,2.6,8,312,1,36,90.7,283,62.2,194,93.8,56,3,18.9,59,373,150,4.2,10.4,1.32
Tony Pollard,27126,HB,DAL,18,1.3,3,78.6,0.0,0,2,0,2.2,1,19,9,0,84.3,91.0,90.2,74.9,76.0,0.0,0,0,68,17.8,62,348,0,44,77.9,271,7.8,27,113.8,56,3,11.8,41,394,372,8.5,9.0,1.45
Austin Hooper,10715,TE,TEN,17,8.5,4,73.2,60.0,9,15,0,2.4,1,28,31,0,83.5,78.7,68.8,24.2,74.6,33.8,119,0,24,4.0,14,352,4,41,90.9,320,52.8,186,108.0,56,2,13.4,47,444,134,3.3,10.8,1.39
Isaiah Hodgins,52130,WR,NYG,12,9.2,4,82.1,63.6,7,11,0,0.0,0,28,21,1,90.4,36.0,76.9, ,76.1,0.0,0,1,32,0.0,0,355,0,46,95.2,338,17.7,63,126.2,56,5,82.3,292,500,131,2.8,10.9,1.48
Mike Gesicki,47153,TE,MIA,18,10.8,1,60.7,20.0,2,10,0,5.6,2,21,17,0,70.1,77.1,60.5,54.9,62.2,25.2,106,2,32,4.8,20,421,1,34,90.0,379,50.6,213,101.6,56,6,23.5,99,377,102,3.0,11.1,0.99
Jahan Dotson,84375,WR,WAS,12,15.4,2,62.5,61.1,11,18,0,7.9,3,26,32,0,63.4,78.0,70.5, ,74.0,0.0,0,4,61,0.0,0,403,3,35,93.3,376,26.3,106,102.9,56,7,73.7,297,523,144,4.1,14.9,1.39
Josh Reynolds,11872,WR,DET,14,13.2,1,67.9,66.7,6,9,2,5.0,2,25,11,0,73.2,77.9,64.1,70.0,64.2,0.0,0,1,31,0.5,2,405,2,38,94.8,384,36.5,148,104.7,56,3,63.5,257,479,117,3.1,12.6,1.25
Kyle Pitts,83964,TE,ATL,10,13.7,3,50.0,25.0,3,12,0,3.4,1,20,2,0,76.7,76.3,72.7,70.9,76.6,25.6,61,1,33,6.3,15,238,1,28,88.7,211,44.5,106,74.7,56,2,27.7,66,356,133,4.8,12.7,1.69
Rondale Moore,62890,WR,ARZ,8,5.2,7,74.5,20.0,1,5,1,8.9,4,16,1,0,60.4,79.3,63.4, ,63.6,0.0,0,0,38,0.0,0,301,1,41,93.4,281,56.8,171,101.6,55,1,40.9,123,414,291,7.1,10.1,1.47
Julio Jones,6158,WR,TB,11,13.9,2,58.5,45.5,5,11,0,0.0,0,16,30,0,88.3,78.0,66.0, ,65.3,0.0,0,0,48,0.0,0,301,0,31,93.0,280,26.9,81,99.0,53,3,73.1,220,373,141,4.5,12.0,1.33
Najee Harris,57121,HB,PIT,17,1.7,13,77.4,12.5,1,8,0,8.9,4,16,25,1,59.0,76.0,73.5,64.4,61.9,1.7,7,0,19,23.5,99,422,1,41,70.4,297,3.8,16,103.4,53,3,5.0,21,229,203,5.0,5.6,0.77
Treylon Burks,99218,WR,TEN,11,12.4,4,62.3,58.3,7,12,1,2.9,1,19,31,0,79.6,78.1,74.1, ,73.9,0.4,1,4,51,0.0,0,265,5,33,95.8,254,20.8,55,70.0,53,2,78.9,209,444,177,5.4,13.5,1.75
Devin Singletary,40485,HB,BUF,18,0.4,8,81.1, ,0,0,0,8.5,4,16,4,0,59.7,55.3,78.6,73.2,58.5,0.0,0,0,22,17.5,93,530,0,43,79.1,419,12.1,64,97.9,53,1,5.8,31,317,304,7.1,7.4,0.76
Quez Watkins,61664,WR,PHI,20,11.2,4,64.2,9.1,1,11,0,2.9,1,13,24,1,70.8,30.7,52.7,66.2,54.2,0.0,0,3,53,0.2,1,477,1,34,94.8,452,75.5,360,79.3,53,3,24.5,117,362,157,4.6,10.6,0.8
Allen Robinson II,8696,WR,LA,10,10.1,2,64.7,53.3,8,15,0,5.7,2,23,26,0,69.5,77.0,65.8,67.6,64.8,0.0,0,1,29,0.5,2,375,1,33,97.1,364,33.6,126,95.1,51,3,66.4,249,339,71,2.2,10.3,0.93
D.J. Chark Jr.,47702,WR,DET,11,15.9,3,58.8,50.0,8,16,0,9.1,3,24,11,0,57.8,76.5,69.6, ,69.6,0.0,0,1,51,0.0,0,351,0,30,97.2,341,25.4,89,103.6,51,3,74.6,262,502,138,4.6,16.7,1.47
Greg Dulcich,84068,TE,DEN,10,12.7,3,64.7,40.0,2,5,1,8.3,3,19,10,0,62.9,77.4,60.4,27.7,67.6,33.5,116,3,39,3.5,12,346,1,33,91.3,316,58.1,201,78.1,51,2,8.4,29,411,147,4.5,12.5,1.3
Trent Sherfield,48021,WR,MIA,18,11.9,1,60.0,62.5,5,8,0,3.2,1,18,17,0,78.4,76.8,61.5,71.8,59.4,0.0,0,3,75,0.4,2,461,3,30,94.8,437,51.0,235,75.2,50,2,48.6,224,417,142,4.7,13.9,0.95
Nelson Agholor,9453,WR,NE,16,12.1,4,62.0,28.6,2,7,0,11.4,4,12,19,2,49.8,20.6,56.4,76.5,57.7,0.0,0,3,44,1.3,4,313,0,31,94.2,295,30.0,94,72.3,50,2,69.6,218,362,145,4.7,11.7,1.23
Jordan Akins,47050,TE,HST,15,8.5,6,75.5,62.5,5,8,1,2.6,1,23,13,1,81.8,29.3,72.4,61.3,74.3,47.9,156,2,46,3.1,10,326,2,37,92.9,303,40.2,131,124.1,49,5,12.0,39,495,270,7.3,13.4,1.63
Foster Moreau,47043,TE,LV,15,8.1,3,67.3,36.4,4,11,0,5.7,2,24,23,1,70.1,77.1,61.1,72.0,69.7,39.6,168,2,33,14.9,63,424,4,33,80.9,343,43.9,186,90.5,49,2,14.6,62,420,241,7.3,12.7,1.22
Rex Burkhead,7971,HB,HST,16,1.7,2,75.5,25.0,1,4,0,2.6,1,8,13,0,81.5,82.5,59.1,47.5,61.9,0.0,0,1,17,13.1,30,229,0,37,82.5,189,15.3,35,80.7,49,1,8.3,19,204,223,6.0,5.5,1.08
Hunter Renfrow,47509,WR,LV,10,6.5,7,73.5,75.0,3,4,0,0.0,0,18,23,3,90.0,21.4,65.6, ,64.8,0.0,0,4,27,0.0,0,308,0,36,94.8,292,86.0,265,71.0,49,2,13.6,42,330,161,4.5,9.2,1.13
Randall Cobb,6216,WR,GB,13,10.2,4,70.8,25.0,2,8,0,5.6,2,19,12,1,70.1,79.1,70.1,36.3,71.3,0.0,0,1,40,0.4,1,261,0,34,95.4,249,80.1,209,95.6,48,1,18.8,49,417,182,5.4,12.3,1.67
Kendrick Bourne,12270,WR,NE,16,10.6,3,74.5,40.0,2,5,1,7.9,3,22,19,2,64.1,23.4,63.6, ,67.8,0.0,0,2,41,0.0,0,310,4,35,95.5,296,27.1,84,92.0,47,1,72.9,226,434,144,4.1,12.4,1.47
Michael Carter,57337,HB,NYJ,16,0.6,5,87.2,66.7,4,6,0,2.4,1,12,22,1,82.6,72.7,61.3,30.2,65.4,13.3,44,0,37,17.0,56,330,1,41,80.9,267,4.8,16,92.2,47,0,3.9,13,288,275,6.7,7.0,1.08
Devin Duvernay,40006,WR,BLT,14,10.0,2,78.7,60.0,3,5,0,2.6,1,19,3,0,80.8,89.5,67.2, ,66.2,0.3,1,1,31,0.0,0,374,0,37,94.1,352,33.4,125,115.2,47,3,66.3,248,407,160,4.3,11.0,1.16
Terrace Marshall Jr.,84271,WR,CAR,14,12.7,4,59.6,36.8,7,19,0,6.7,2,23,5,2,65.8,26.7,67.7, ,66.7,0.3,1,0,43,0.0,0,344,0,28,94.8,326,9.0,31,102.3,47,1,90.7,312,490,143,5.1,17.5,1.5
Travis Etienne,57185,HB,JAX,19,-0.8,2,83.0,0.0,0,1,0,7.1,3,18,15,2,66.8,52.7,76.7,45.6,56.7,0.0,0,0,30,16.7,78,467,0,39,79.0,369,3.9,18,97.3,47,0,6.4,30,346,404,10.4,8.9,0.94
DeVante Parker,9447,WR,NE,13,16.8,2,66.0,52.6,10,19,0,0.0,0,25,19,0,88.0,76.6,74.1,48.8,74.0,0.0,0,4,43,0.3,1,339,1,31,93.2,316,8.6,29,90.7,47,3,91.4,310,540,105,3.4,17.4,1.71
A.J. Green,6156,WR,ARZ,15,11.7,2,52.2,50.0,7,14,0,7.7,2,11,1,0,66.6,76.3,55.5, ,55.1,0.0,0,3,77,0.0,0,384,3,24,94.3,362,13.0,50,54.3,46,2,87.0,334,236,58,2.4,9.8,0.65
Nick Westbrook-Ikhine,47861,WR,TEN,17,13.7,2,55.6,30.0,6,20,0,10.7,3,18,31,0,55.1,75.9,59.8,38.3,57.9,0.0,0,2,63,0.2,1,443,2,25,94.6,419,55.3,245,88.8,45,3,44.5,197,397,108,4.3,15.9,0.95
Chigoziem Okonkwo,84000,TE,TEN,17,8.0,7,71.1,62.5,5,8,0,8.6,3,22,31,0,61.2,77.6,75.4,67.6,84.6,43.8,85,0,48,7.2,14,194,3,32,88.7,172,34.5,67,125.1,45,3,13.9,27,449,250,7.8,14.0,2.61
Van Jefferson,47447,WR,LA,11,16.6,1,54.5,37.5,3,8,0,4.0,1,20,26,0,74.9,75.7,68.4, ,67.7,0.3,1,3,39,0.0,0,310,0,24,96.5,299,29.0,90,76.8,44,3,70.6,219,369,34,1.4,15.4,1.23
Tyquan Thornton,78092,WR,NE,13,14.9,1,51.2,20.0,1,5,0,12.0,3,13,19,0,49.5,75.9,55.2, ,54.3,0.0,0,2,29,0.0,0,348,0,22,93.7,326,24.1,84,64.8,43,2,75.9,264,247,66,3.0,11.2,0.76
Chosen Anderson,11254,WR,ARZ,16,14.6,0,46.5,22.2,2,9,0,4.8,1,10,1,1,70.5,24.3,51.2, ,52.6,0.0,0,1,75,0.0,0,343,1,20,94.2,323,14.3,49,66.2,43,1,85.7,294,282,97,4.9,14.1,0.87
Harrison Bryant,26394,TE,CLV,17,6.0,6,73.8,50.0,3,6,0,11.4,4,12,8,0,50.6,77.1,59.3,76.8,54.9,45.6,136,0,30,9.7,29,298,0,31,83.6,249,38.9,116,95.2,42,1,13.4,40,239,112,3.6,7.7,0.96
Darren Waller,9637,TE,LV,9,14.0,0,66.7,42.9,3,7,1,6.7,2,18,23,0,66.6,76.3,72.4,36.0,74.5,17.4,46,2,34,1.9,5,265,2,28,92.8,246,61.9,164,100.1,42,3,20.0,53,388,77,2.8,13.9,1.58
Skyy Moore,97116,WR,KC,18,7.7,7,65.9,33.3,1,3,0,3.6,1,14,16,0,75.5,84.4,67.7, ,67.6,0.9,2,3,30,0.0,0,224,0,27,92.9,208,48.7,109,61.7,41,1,50.0,112,267,169,6.3,9.9,1.28
Kareem Hunt,11841,HB,CLV,17,-0.4,12,85.4,66.7,2,3,0,5.4,2,11,8,0,72.0,73.7,67.0,54.6,66.4,7.5,25,0,24,17.7,59,334,1,35,76.0,254,4.8,16,96.1,41,1,6.9,23,210,236,6.7,6.0,0.83
Scotty Miller,47481,WR,TB,15,13.0,1,57.5,35.7,5,14,0,4.2,1,8,30,0,72.8,75.4,55.6, ,55.1,0.0,0,0,23,0.0,0,206,1,23,94.7,195,23.8,49,69.3,40,0,76.2,157,185,36,1.6,8.0,0.95
Nyheim Hines,48103,HB,BUF,18,3.1,7,80.0,66.7,2,3,0,5.9,2,11,4,0,68.8,73.6,63.4,73.4,76.7,1.3,2,0,22,5.0,8,159,0,32,91.8,146,26.4,42,101.3,40,1,11.9,19,252,202,6.3,7.9,1.73
Jeff Wilson Jr.,29413,HB,MIA,17,2.1,5,57.5,25.0,1,4,0,8.0,2,8,17,1,61.5,51.9,65.7,40.9,48.4,0.6,2,1,16,9.8,32,327,1,23,84.1,275,14.1,46,68.5,40,1,10.1,33,198,169,7.3,8.6,0.72
Kylen Granson,40630,TE,IND,13,6.2,3,79.5,50.0,2,4,0,6.1,2,17,14,1,61.3,28.8,58.5,47.8,65.1,37.7,97,3,32,4.7,12,257,1,31,89.9,231,51.8,133,66.9,39,0,10.5,27,302,134,4.3,9.7,1.31
David Montgomery,45719,HB,CHI,16,1.1,10,87.2,50.0,1,2,0,2.9,1,10,6,1,80.5,69.0,67.9,57.4,64.0,0.0,0,1,32,15.8,54,341,0,34,79.2,270,9.4,32,98.3,39,1,8.2,28,316,288,8.5,9.3,1.17
Trey McBride,75916,TE,ARZ,15,6.1,1,74.4,42.9,3,7,0,3.3,1,12,1,1,77.8,27.8,50.9,81.2,53.6,46.8,170,0,29,7.4,27,363,4,29,87.3,317,33.3,121,100.9,39,1,10.5,38,265,117,4.0,9.1,0.84
J.D. McKissic,11047,HB,WAS,8,1.3,1,69.2,0.0,0,3,0,10.0,3,7,32,0,57.2,80.9,54.2,43.7,54.4,0.0,0,2,14,12.8,24,187,0,27,82.4,154,16.0,30,56.9,39,0,11.8,22,173,152,5.6,6.4,1.12
Marquise Goodwin,7859,WR,SEA,13,11.3,3,69.2,50.0,4,8,0,6.9,2,18,29,0,65.8,76.7,64.5,65.8,64.5,0.3,1,1,38,0.3,1,318,1,27,94.0,299,58.8,187,124.6,39,4,40.3,128,387,120,4.4,14.3,1.29
Raheem Mostert,9783,HB,MIA,16,1.0,12,79.5,50.0,1,2,0,6.1,2,11,17,0,68.1,82.6,75.7,54.1,60.8,0.0,0,1,25,9.5,32,338,0,31,87.0,294,16.3,55,94.7,39,2,6.5,22,202,188,6.1,6.5,0.69
Derrick Henry,10679,HB,TEN,16,-0.1,6,84.6,66.7,2,3,0,10.8,4,11,31,2,54.3,46.9,85.9,66.9,46.8,0.4,1,0,69,21.1,56,265,1,33,72.1,191,2.3,6,109.2,39,0,5.7,15,398,397,12.0,12.1,2.08
Phillip Dorsett,9462,WR,HST,15,11.5,0,51.3,50.0,2,4,2,9.1,2,11,13,0,59.2,74.9,55.7, ,56.6,0.0,0,2,34,0.0,0,306,3,20,94.1,288,19.0,58,59.5,39,1,81.0,248,257,57,2.9,12.9,0.89
A.J. Dillon,57165,HB,GB,17,0.1,4,71.8,100.0,2,2,0,15.2,5,9,12,1,39.8,79.5,81.4,70.3,50.6,2.5,8,0,17,14.3,45,315,0,28,80.0,252,4.1,13,83.9,39,0,5.7,18,206,206,7.4,7.4,0.82
Equanimeous St. Brown,47967,WR,CHI,16,12.8,0,55.3,28.6,2,7,0,4.5,1,14,6,1,71.3,76.5,64.2,80.5,60.9,2.0,6,3,56,2.6,8,306,0,21,91.5,280,30.7,94,59.4,38,1,67.3,206,323,98,4.7,15.4,1.15
Cameron Brate,9207,TE,TB,12,7.9,4,55.3,25.0,2,8,0,8.7,2,9,30,0,59.2,74.6,53.4,79.1,54.5,25.3,70,1,21,1.4,4,277,1,21,94.2,261,55.2,153,65.9,38,1,19.5,54,182,72,3.4,8.7,0.7
Will Dissly,30762,TE,SEA,15,5.3,4,89.5,66.7,2,3,0,5.6,2,20,29,0,70.1,77.5,70.8,65.6,70.8,64.2,201,0,38,14.4,45,313,1,34,81.2,254,20.8,65,131.3,38,3,8.6,27,349,186,5.5,10.3,1.37
Daniel Bellinger,84041,TE,NYG,14,4.0,0,86.8,75.0,3,4,0,2.9,1,16,21,1,79.9,28.6,60.2,53.0,57.1,55.0,214,0,24,7.2,28,389,3,33,87.7,341,25.4,99,124.8,38,3,17.5,68,290,170,5.2,8.8,0.85
Shi Smith,61643,WR,CAR,16,8.8,4,57.9,25.0,2,8,0,8.3,2,14,5,1,61.3,27.4,52.1, ,53.0,0.3,1,3,38,0.0,0,338,2,22,95.0,321,78.7,266,67.4,38,2,21.0,71,296,95,4.3,13.5,0.92
Colby Parkinson,52266,TE,SEA,18,7.9,0,73.7,40.0,2,5,0,0.0,0,14,29,0,86.9,76.5,68.1,71.3,67.0,53.0,142,0,39,10.8,29,268,2,28,84.7,227,32.8,88,117.9,38,2,11.6,31,336,154,5.5,12.0,1.48
Jarvis Landry,8698,WR,NO,9,9.6,6,67.6,50.0,3,6,0,0.0,0,12,20,1,86.5,77.8,67.3, ,66.5,0.9,2,2,40,0.0,0,221,1,25,93.7,207,70.1,155,75.5,37,1,29.0,64,272,62,2.5,10.9,1.31
Noah Gray,60878,TE,KC,20,5.3,4,83.8,25.0,1,4,0,3.1,1,15,16,0,78.4,78.3,60.7,43.3,61.0,68.7,272,0,27,11.9,47,396,1,31,85.4,338,19.9,79,113.5,37,1,11.1,44,336,202,6.5,10.8,0.99
Kenneth Gainwell,77737,HB,PHI,20,0.6,9,81.1,100.0,1,1,0,9.1,3,8,24,0,60.5,88.1,63.5,46.7,58.8,1.4,4,1,20,13.7,40,293,0,30,80.5,236,6.1,18,80.7,37,0,9.9,29,225,201,6.7,7.5,0.95
Jonnu Smith,11855,TE,NE,14,3.4,11,73.0,37.5,3,8,0,0.0,0,9,19,0,86.5,25.6,52.9,71.2,72.1,59.5,125,1,53,13.8,29,210,1,27,81.4,171,27.6,58,79.2,37,0,9.0,19,245,202,7.5,9.1,1.43
Jelani Woods,60509,TE,IND,15,10.7,2,69.4,57.1,4,7,0,7.4,2,16,14,1,64.1,26.2,64.9,33.1,68.0,40.9,92,1,36,2.7,6,225,0,25,92.0,207,38.7,87,112.3,36,3,20.4,46,312,114,4.6,12.5,1.51
Mecole Hardman,42683,WR,KC,9,8.0,2,75.0,66.7,2,3,0,6.9,2,15,16,0,55.1,81.0,68.2, ,66.5,0.4,1,0,36,0.0,0,228,0,27,91.7,209,51.3,117,137.2,36,4,46.5,106,307,167,6.2,11.4,1.47
Irv Smith Jr.,42060,TE,MIN,9,5.2,2,72.2,25.0,1,4,0,7.1,2,10,18,1,64.1,26.2,56.4,44.4,56.4,60.3,129,1,17,9.8,21,214,1,26,84.6,181,20.6,44,99.9,36,3,18.7,40,185,98,3.8,7.1,1.02
Dameon Pierce,83659,HB,HST,13,-0.6,13,83.3, ,0,0,1,11.8,4,7,13,0,50.6,46.0,78.9,32.3,55.4,0.0,0,1,16,21.1,55,261,1,30,73.6,192,3.8,10,83.4,36,1,4.6,12,165,200,6.7,5.5,0.86
Dante Pettis,48113,WR,CHI,17,10.2,3,52.8,22.2,2,9,0,13.6,3,9,6,0,49.5,84.5,53.3,75.3,53.5,0.3,1,1,51,0.6,2,327,3,19,94.2,308,43.7,143,90.6,36,3,56.0,183,245,62,3.3,12.9,0.8
Kenneth Walker III,97199,HB,SEA,16,-2.1,9,80.0,100.0,1,1,0,3.4,1,6,29,0,77.3,91.1,76.9,29.5,54.6,0.0,0,1,33,16.8,58,345,1,28,77.7,268,7.5,26,74.8,35,0,14.2,49,168,227,8.1,6.0,0.63
Justin Watson,66915,WR,KC,19,19.3,0,51.4,25.0,1,4,0,18.2,4,15,16,0,33.5,78.5,53.5,83.1,53.8,0.9,3,1,67,0.6,2,352,1,18,93.8,330,30.4,107,93.2,35,2,68.8,242,345,58,3.2,19.2,1.05
Tutu Atwell,77965,WR,LA,13,17.9,2,51.4,57.1,4,7,0,5.3,1,11,26,0,68.7,77.0,70.1, ,70.2,0.5,1,1,62,0.0,0,186,0,18,95.7,178,54.3,101,78.0,35,1,44.6,83,298,66,3.7,16.6,1.67
Deon Jackson,57189,HB,IND,12,-0.4,5,88.2, ,0,0,0,3.2,1,10,14,0,77.3,61.2,62.9,53.1,69.3,0.0,0,1,27,16.0,28,175,0,30,81.1,142,1.7,3,89.8,34,1,10.3,18,209,231,7.7,7.0,1.47
Jamal Agnew,11920,WR,JAX,16,5.5,2,76.5,50.0,1,2,0,10.3,3,9,15,1,55.1,70.0,67.6,68.8,64.1,0.0,0,0,24,0.9,1,108,0,26,93.5,101,54.6,59,119.0,34,3,44.4,48,194,141,5.4,7.5,1.92
Rashid Shaheed,63707,WR,NO,12,11.6,0,82.4,0.0,0,1,0,0.0,0,18,20,1,86.9,89.8,80.8, ,78.6,0.0,0,0,68,0.0,0,193,0,28,97.4,188,25.9,50,138.4,34,2,73.6,142,487,173,6.2,17.4,2.59
Jonathan Taylor,57488,HB,IND,11,-2.1,6,82.4,0.0,0,1,0,6.7,2,4,14,0,67.3,53.6,67.6,28.5,57.7,0.0,0,1,19,12.7,39,307,0,28,83.4,256,2.6,8,71.9,34,0,3.6,11,143,210,7.5,5.1,0.56
James Cook,83666,HB,BUF,17,2.3,4,63.6,0.0,0,2,0,8.7,2,5,4,0,59.2,68.5,73.2,26.9,68.3,0.0,0,1,41,10.4,18,173,1,21,85.5,148,9.8,17,75.3,33,1,12.1,21,180,140,6.7,8.6,1.22
Nick Chubb,45783,HB,CLV,17,0.6,9,81.8,100.0,2,2,0,3.6,1,12,8,0,76.1,87.7,90.3,61.8,58.5,2.2,7,0,26,16.0,52,324,0,27,78.4,254,3.4,11,106.9,33,1,10.5,34,239,261,9.7,8.9,0.94
Marquez Callaway,42295,WR,NO,13,12.5,1,50.0,40.0,4,10,0,11.1,2,11,20,0,52.8,77.1,59.7, ,58.8,0.0,0,2,33,0.0,0,197,0,16,95.4,188,7.1,14,48.7,32,1,92.9,183,158,39,2.4,9.9,0.84
Laviska Shenault Jr.,61220,WR,CAR,12,-0.8,15,84.4,50.0,1,2,0,3.6,1,10,5,0,75.5,78.5,85.0, ,86.5,8.2,8,0,67,0.0,0,97,1,27,96.9,94,51.5,50,112.5,32,1,39.2,38,272,335,12.4,10.1,2.89
David Bell,97989,WR,CLV,16,6.6,2,75.0,44.4,4,9,0,7.7,2,7,8,0,63.4,76.0,52.5,69.2,52.1,0.0,0,3,20,0.9,3,327,0,24,93.3,305,72.2,236,53.4,32,0,27.8,91,214,74,3.1,8.9,0.7
Ameer Abdullah,9487,HB,LV,15,2.8,2,78.1,0.0,0,2,0,0.0,0,8,23,0,86.1,83.8,66.4,29.8,81.1,0.0,0,0,23,17.2,29,169,1,25,79.3,134,1.8,3,104.6,32,1,5.3,9,211,199,8.0,8.4,1.57
Jaylen Warren,98692,HB,PIT,16,-0.9,10,87.5,100.0,2,2,0,6.7,2,14,25,0,67.5,63.8,73.8,43.4,79.8,5.2,12,0,26,22.7,53,233,0,28,73.8,172,4.3,10,94.5,32,0,3.4,8,214,236,8.4,7.6,1.24
Tommy Tremble,84025,TE,CAR,17,8.6,2,61.3,33.3,1,3,0,9.5,2,9,5,0,56.9,24.4,49.5,81.0,45.8,76.3,209,1,29,3.6,10,274,2,19,89.8,246,16.4,45,95.4,31,3,5.8,16,174,68,3.6,9.2,0.71
Cordarrelle Patterson,7810,HB,ATL,13,2.0,4,67.7,50.0,2,4,0,4.5,1,6,2,0,72.1,76.5,81.0,59.5,65.6,0.5,1,2,16,12.7,26,205,0,21,82.9,170,15.1,31,48.1,31,0,18.5,38,122,120,5.7,5.8,0.72
Kendall Hinton,34045,WR,DEN,12,8.7,3,77.4, ,0,0,0,11.1,3,14,10,0,41.4,78.3,58.5, ,59.1,0.0,0,0,35,0.0,0,314,0,24,91.1,286,52.2,164,108.4,31,0,47.8,150,311,135,5.6,13.0,1.09
Brandon Powell,48036,WR,LA,17,1.4,1,77.4,50.0,1,2,0,0.0,0,7,26,0,85.7,90.3,65.8,74.3,65.8,0.7,1,0,16,2.6,4,152,0,24,95.4,145,52.0,79,87.6,31,0,38.8,59,156,184,7.7,6.5,1.08
Latavius Murray,7962,HB,DEN,13,-1.9,4,87.1, ,0,0,0,0.0,0,4,10,0,87.3,90.5,82.5,43.6,65.6,0.8,2,0,15,17.8,44,247,1,27,77.3,191,5.3,13,84.4,31,0,3.6,9,132,188,7.0,4.9,0.69
Braxton Berrios,47961,WR,NYJ,16,6.7,1,58.1,66.7,4,6,0,10.0,2,8,22,0,70.7,70.3,62.8, ,60.2,0.5,1,1,25,0.0,0,189,0,18,95.2,180,60.8,115,56.5,31,0,37.0,70,145,95,5.3,8.1,0.81
Eno Benjamin,57136,HB,NO,14,-1.3,11,83.3,50.0,1,2,1,7.4,2,10,20,0,64.1,87.9,72.2,57.5,62.3,0.0,0,0,22,9.4,22,233,2,25,83.7,195,14.2,33,93.5,30,0,7.3,17,193,238,9.5,7.7,0.99
Breece Hall,97636,HB,NYJ,7,5.3,8,63.3,0.0,0,2,0,20.8,5,8,22,1,29.4,62.9,69.8,68.9,48.8,8.6,12,1,79,15.8,22,139,0,19,78.4,109,6.5,9,82.4,30,1,8.6,12,218,146,7.7,11.5,2.0
Melvin Gordon III,9448,HB,DEN,10,0.5,1,83.3, ,0,0,0,10.7,3,11,10,1,52.7,22.8,49.1,39.9,50.5,0.0,0,0,24,12.0,22,183,2,25,83.6,153,5.5,10,97.6,30,0,2.2,4,223,206,8.2,8.9,1.46
Wan'Dale Robinson,101735,WR,NYG,6,6.1,3,76.7,50.0,4,8,0,8.0,2,13,21,0,50.6,75.8,72.0, ,70.9,0.0,0,0,19,0.0,0,140,0,23,92.1,129,80.7,113,108.6,30,1,19.3,27,227,127,5.5,9.9,1.76
Ian Thomas,42130,TE,CAR,17,1.8,4,72.4,0.0,0,3,0,8.7,2,8,5,0,49.3,74.9,49.6,66.6,54.7,84.0,204,0,50,23.0,56,243,2,21,72.4,176,11.1,27,90.7,29,0,2.1,5,197,184,8.8,9.4,1.12
Sammy Watkins,8639,WR,BLT,13,12.6,1,58.6,40.0,2,5,1,10.5,2,12,3,1,54.3,23.2,62.2, ,61.9,0.0,0,0,55,0.0,0,239,1,17,94.1,225,13.4,32,99.4,29,0,86.6,207,337,132,7.8,19.8,1.5
Kadarius Toney,61245,WR,KC,12,3.5,7,82.1,50.0,1,2,0,8.0,2,12,16,0,63.2,47.2,78.0, ,76.4,1.8,2,0,38,0.0,0,110,1,23,93.6,103,38.2,42,135.3,28,3,56.4,62,221,154,6.7,9.6,2.15
JaMycal Hasty,25582,HB,JAX,17,-1.3,4,75.0,50.0,1,2,0,12.5,3,8,15,0,47.8,84.6,71.5,72.0,64.1,0.0,0,0,28,20.5,39,190,1,21,77.9,148,6.8,13,96.3,28,1,12.6,24,133,148,7.0,6.3,0.9
Miles Sanders,40555,HB,PHI,20,0.8,5,75.0,0.0,0,1,0,8.7,2,2,24,1,59.2,66.7,71.1,37.7,35.4,0.0,0,0,16,11.2,39,349,0,21,84.2,294,6.0,21,77.1,28,0,8.6,30,81,102,4.9,3.9,0.28
Ezekiel Elliott,10638,HB,DAL,17,0.0,1,71.4,33.3,1,3,0,13.0,3,4,9,0,46.4,91.2,68.3,61.1,38.4,3.2,11,0,31,15.3,52,339,0,20,80.8,274,1.5,5,77.7,28,0,6.5,22,108,107,5.4,5.4,0.39
Rashod Bateman,84296,WR,BLT,6,13.2,3,53.6,0.0,0,1,0,25.0,5,7,3,1,28.3,22.4,61.6, ,61.1,0.0,0,1,75,0.0,0,127,0,15,94.5,120,14.2,18,98.1,28,2,85.8,109,285,137,9.1,19.0,2.38
Dontrell Hilliard,45691,HB,TEN,12,1.8,1,75.0,50.0,1,2,0,12.5,3,8,31,0,50.6,81.2,67.1,56.7,59.3,5.1,8,0,31,13.4,21,157,0,21,82.8,130,12.1,19,130.5,28,4,10.8,17,177,158,7.5,8.4,1.36
Brevin Jordan,77887,TE,HST,11,7.7,2,51.9,50.0,2,4,0,6.7,1,7,13,0,64.4,72.7,53.7,55.3,58.9,51.2,86,2,20,12.5,21,168,2,14,83.9,141,31.0,52,34.2,27,0,14.9,25,128,78,5.6,9.1,0.91
Mo Alie-Cox,12078,TE,IND,17,6.0,4,70.4,75.0,3,4,0,5.0,1,9,14,1,69.6,23.9,48.2,65.7,48.0,56.2,181,0,34,11.5,37,322,1,19,85.4,275,33.2,107,126.9,27,3,9.9,32,189,100,5.3,9.9,0.69
Trenton Irwin,48080,WR,CIN,12,11.6,2,65.4,57.1,4,7,1,5.6,1,13,7,0,67.7,75.2,63.6, ,64.9,0.0,0,0,45,0.0,0,258,1,17,93.0,240,41.5,107,136.2,26,4,58.5,151,250,64,3.8,14.7,1.04
Tre'Quan Smith,48228,WR,NO,14,13.0,3,73.1,66.7,4,6,0,5.0,1,14,20,0,70.5,74.4,69.0,66.2,69.1,0.5,1,2,48,0.5,1,190,0,19,93.7,178,62.1,118,88.3,26,1,37.4,71,278,62,3.3,14.6,1.56
C.J. Uzomah,9590,TE,NYJ,15,6.6,4,80.8,100.0,4,4,0,4.5,1,10,22,0,71.3,74.6,62.3,53.1,60.8,62.0,165,0,40,14.3,38,266,2,21,84.6,225,27.1,72,129.5,26,2,9.8,26,232,109,5.2,11.0,1.03
Josh Oliver,47083,TE,BLT,18,9.0,1,64.0,66.7,2,3,0,5.9,1,9,3,0,67.0,73.3,72.3,71.9,63.1,67.8,141,0,40,15.4,32,208,2,16,82.2,171,20.7,43,111.3,25,2,11.1,23,175,91,5.7,10.9,1.02
Matt Breida,12271,HB,NYG,19,2.7,1,84.0,100.0,4,4,0,4.5,1,6,21,0,71.3,85.1,69.5,69.4,56.7,5.4,10,0,19,10.9,20,184,0,21,84.2,155,8.7,16,89.5,25,0,3.8,7,137,100,4.8,6.5,0.88
Joshua Kelley,13750,HB,LAC,14,1.7,2,66.7, ,0,0,0,15.8,3,4,27,0,39.8,86.4,62.2,50.4,44.3,0.0,0,0,22,24.6,51,207,0,16,71.5,148,5.3,11,77.3,24,0,2.4,5,113,104,6.5,7.1,0.76
Dare Ogunbowale,12329,HB,HST,11,-0.8,4,83.3,100.0,1,1,0,0.0,0,5,13,0,84.5,83.8,65.0,89.6,67.8,0.0,0,1,23,17.7,23,130,0,20,76.9,100,9.2,12,67.4,24,0,8.5,11,104,131,6.6,5.2,1.04
Kenyan Drake,10707,HB,BLT,12,-0.1,1,70.8,0.0,0,1,0,22.7,5,7,3,0,29.0,69.3,53.1,45.1,46.2,1.0,2,1,15,17.2,36,209,0,17,77.5,162,14.4,30,73.1,24,1,3.8,8,89,127,7.5,5.2,0.55
Denzel Mims,47800,WR,NYJ,10,13.5,4,41.7,25.0,2,8,0,16.7,2,7,22,0,41.4,71.1,59.7, ,59.9,0.6,1,1,63,0.0,0,167,2,10,98.2,164,22.8,38,51.6,24,0,76.6,128,185,71,7.1,18.5,1.13
Eric Saubert,11929,TE,DEN,17,7.9,3,65.2,33.3,1,3,0,11.8,2,6,10,0,51.2,74.3,50.4,55.1,49.0,53.6,118,1,25,7.7,17,220,3,15,85.9,189,39.5,87,79.6,23,1,6.8,15,148,76,5.1,9.9,0.78
Khalil Shakir,84140,WR,BUF,16,14.5,0,65.2,66.7,2,3,0,11.8,2,11,4,0,52.8,77.6,65.6,52.8,68.0,0.0,0,0,31,0.0,0,181,0,15,94.5,171,61.3,111,116.6,23,1,38.7,70,252,84,5.6,16.8,1.47
O.J. Howard,11774,TE,HST,13,10.2,0,43.5,50.0,2,4,1,9.1,1,6,13,0,78.0,71.1,56.2,47.5,62.6,81.6,133,1,26,19.0,31,163,1,10,76.1,124,9.8,16,75.5,23,2,7.4,12,145,59,5.9,14.5,1.17
Amari Rodgers,61212,WR,HST,13,10.7,2,69.6,60.0,3,5,0,5.9,1,12,13,2,68.0,24.3,62.1, ,64.1,0.6,1,1,37,0.0,0,172,1,16,94.2,162,66.3,114,93.4,23,1,33.1,57,204,64,4.0,12.8,1.26
Jake Ferguson,61081,TE,DAL,18,3.0,4,87.0,100.0,1,1,0,0.0,0,9,9,0,84.5,74.9,66.1,56.8,75.2,74.6,126,0,34,27.8,47,169,2,20,68.6,116,16.6,28,133.3,23,2,7.1,12,208,154,7.7,10.4,1.79
Kyle Juszczyk,7912,FB,SF,19,2.7,5,87.0,100.0,1,1,0,4.8,1,9,28,0,70.5,77.3,62.6,64.9,59.2,19.8,54,0,35,12.5,34,273,1,20,83.5,228,25.3,69,118.5,23,1,18.3,50,206,154,7.7,10.3,0.9
Zach Gentry,36049,TE,PIT,17,3.0,0,82.6,33.3,1,3,0,5.0,1,6,25,0,69.6,74.1,47.5,53.6,48.0,91.4,234,0,32,23.4,60,256,1,19,72.3,185,7.4,19,90.6,23,0,1.2,3,132,101,5.3,6.9,0.71
Brock Wright,60994,TE,DET,17,3.3,0,78.3,100.0,1,1,0,14.3,3,13,11,0,43.3,73.9,54.2,56.7,63.6,71.3,184,0,51,29.8,77,258,2,18,65.1,168,15.1,39,145.4,23,4,11.6,30,216,167,9.3,12.0,1.29
Chase Edmonds,45851,HB,DEN,13,2.6,4,69.6,0.0,0,2,0,23.8,5,7,10,0,27.8,85.7,50.8,29.3,36.1,0.0,0,0,27,14.1,29,206,1,16,79.1,163,13.6,28,103.0,23,1,6.3,13,157,113,7.1,9.8,0.96
Johnny Mundt,12206,TE,MIN,18,1.1,2,90.9,100.0,2,2,1,9.1,2,10,18,0,58.1,75.0,53.9,56.4,56.9,81.0,175,0,17,26.4,57,216,2,20,71.8,155,7.9,17,110.6,22,1,10.2,22,152,137,6.9,7.6,0.98
Alec Ingold,34934,FB,MIA,18,2.5,3,68.2, ,0,0,0,11.8,2,4,17,0,51.2,76.4,58.3,67.4,52.7,23.4,46,0,17,20.8,41,197,1,15,76.1,150,25.9,51,93.9,22,1,16.8,33,105,95,6.3,7.0,0.7
Damien Harris,35134,HB,NE,11,1.0,4,77.3,50.0,2,4,0,10.5,2,4,19,0,55.6,88.6,75.8,69.2,55.7,0.0,0,1,15,17.4,21,121,0,17,79.3,96,6.6,8,65.9,22,0,4.1,5,97,92,5.4,5.7,1.01
Steven Sims,48341,WR,PIT,12,5.4,0,63.6,33.3,1,3,0,0.0,0,5,25,0,80.6,88.6,55.0, ,53.4,1.3,2,0,28,0.0,0,158,1,14,95.6,151,73.4,116,74.8,22,0,25.3,40,104,63,4.5,7.4,0.69
Zach Pascal,12303,WR,PHI,20,5.4,3,81.8,60.0,3,5,0,0.0,0,10,24,0,68.7,74.3,61.1,48.8,59.9,9.0,18,1,34,0.5,1,200,2,18,94.0,188,63.0,126,94.1,22,1,26.0,52,165,90,5.0,9.2,0.88
Michael Thomas,10681,WR,NO,3,10.5,0,72.7,80.0,8,10,0,5.9,1,13,20,0,68.7,73.9,77.3, ,77.4,0.0,0,0,21,0.0,0,109,1,16,95.4,104,20.2,22,134.7,22,3,79.8,87,171,25,1.6,10.7,1.64
Damiere Byrd,9964,WR,ATL,14,20.5,2,59.1,20.0,1,5,0,7.1,1,9,2,0,63.5,72.3,66.6, ,66.2,0.0,0,2,75,0.0,0,174,0,13,96.0,167,12.6,22,94.5,22,2,87.4,152,268,104,8.0,20.6,1.6
Clyde Edwards-Helaire,57279,HB,KC,10,1.3,6,77.3,100.0,1,1,0,5.6,1,11,16,0,67.7,86.1,67.6,43.7,72.7,0.7,1,0,25,9.7,14,145,0,17,85.5,124,2.8,4,134.7,22,3,13.1,19,151,143,8.4,8.9,1.22
Adam Trautman,109795,TE,NO,15,5.4,1,81.8,33.3,1,3,1,0.0,0,9,20,0,83.2,74.1,66.7,71.9,69.2,72.9,148,0,22,29.1,59,203,4,18,68.5,139,16.3,33,121.0,22,1,10.3,21,207,122,6.8,11.5,1.49
Keelan Cole,51593,WR,LV,14,17.3,1,45.5,20.0,1,5,0,16.7,2,8,23,0,41.1,82.6,47.9,70.0,49.5,0.0,0,0,30,0.8,2,260,1,10,93.5,243,63.5,165,81.8,22,1,36.5,95,141,22,2.2,14.1,0.58
Marcus Johnson,11074,WR,NYG,16,11.2,0,47.6,40.0,2,5,0,16.7,2,7,21,0,41.1,71.1,55.0, ,54.7,0.0,0,0,18,0.0,0,207,1,10,93.7,194,12.6,26,64.8,21,0,87.4,181,116,37,3.7,11.6,0.6
Mitchell Wilcox,47234,TE,CIN,18,4.0,1,90.5, ,0,0,0,5.0,1,7,7,0,58.1,74.4,55.7,72.1,52.0,70.5,198,0,18,13.2,37,281,2,19,80.4,226,13.9,39,113.7,21,1,12.8,36,157,98,5.2,8.3,0.69
Sterling Shepard,10674,WR,NYG,3,10.6,1,61.9,40.0,2,5,0,13.3,2,4,21,0,47.7,72.3,58.5, ,60.1,0.9,1,0,65,0.0,0,108,1,13,91.7,99,31.5,34,100.1,21,1,67.6,73,154,52,4.0,11.8,1.56
MyCole Pruitt,9576,TE,ATL,13,5.4,0,76.2,50.0,1,2,0,5.9,1,10,2,0,67.0,73.3,75.9,75.8,80.9,76.3,103,0,29,37.8,51,135,1,16,57.0,77,12.6,17,134.9,21,4,4.4,6,150,82,5.1,9.4,1.95
Ty Johnson,45769,HB,NYJ,11,2.2,2,57.1,0.0,0,1,0,14.3,2,3,22,0,45.7,81.9,71.2,55.3,43.3,23.5,31,1,16,23.5,31,132,0,12,75.0,99,7.6,10,47.3,21,0,2.3,3,88,71,5.9,7.3,0.89
Javonte Williams,77803,HB,DEN,4,-0.9,5,76.2,0.0,0,3,0,5.9,1,4,10,0,67.0,49.7,64.5,60.3,68.0,0.0,0,0,13,18.2,16,88,1,16,78.4,69,3.4,3,80.7,21,0,2.3,2,76,119,7.4,4.8,1.1
Ray-Ray McCloud III,47895,WR,SF,19,13.2,0,66.7,66.7,2,3,1,12.5,2,10,28,0,53.1,53.1,68.9,62.4,69.6,0.0,0,0,42,0.5,1,185,1,14,93.0,172,45.4,84,121.7,21,1,54.1,100,243,95,6.8,17.4,1.41
Lawrence Cager,34914,TE,NYG,8,6.2,2,71.4,0.0,0,2,0,6.3,1,9,21,0,51.5,74.0,57.4,43.9,59.0,38.2,55,2,20,4.9,7,144,2,15,91.0,131,42.4,61,65.3,21,1,18.8,27,138,81,5.4,9.2,1.05
Darrell Henderson,41193,HB,JAX,10,1.2,1,81.0,0.0,0,1,0,0.0,0,5,15,0,82.7,86.1,57.7,61.7,49.6,0.0,0,0,15,16.0,39,244,0,17,82.0,200,12.3,30,86.9,21,0,11.5,28,102,113,6.6,6.0,0.51
Durham Smythe,47257,TE,MIA,17,4.9,0,80.0,0.0,0,1,0,0.0,0,8,17,0,81.7,75.3,62.7,59.2,56.6,71.3,201,0,26,35.1,99,282,0,16,62.4,176,17.7,50,114.4,20,1,6.4,18,149,60,3.8,9.3,0.85
Isiah Pacheco,83747,HB,KC,20,-3.0,7,95.0, ,0,0,0,0.0,0,10,16,0,83.2,48.7,76.2,30.6,74.3,0.9,2,0,32,11.7,26,222,0,19,87.4,194,2.7,6,107.3,20,0,8.6,19,195,258,13.6,10.3,1.01
Ashton Dulin,91479,WR,IND,12,13.3,1,75.0,75.0,6,8,0,0.0,0,12,14,0,81.1,73.9,71.6,67.1,69.6,2.3,3,2,39,0.8,1,131,0,15,91.6,120,45.0,59,84.8,20,1,52.7,69,207,35,2.3,13.8,1.73
John Bates,42275,TE,WAS,16,6.3,0,70.0,0.0,0,1,0,6.7,1,4,32,1,65.6,22.4,57.0,52.4,47.7,55.5,117,0,20,34.1,72,211,0,14,60.7,128,34.1,72,99.6,20,1,3.8,8,108,53,3.8,7.7,0.84
Breshad Perriman,9459,WR,TB,11,15.1,3,47.4,0.0,0,7,0,10.0,1,5,30,1,56.7,19.9,51.7, ,54.7,0.0,0,0,28,0.0,0,145,1,9,95.2,138,31.0,45,83.2,19,1,69.0,100,110,53,5.9,12.2,0.8
Alexander Mattison,45817,HB,MIN,18,-2.3,5,84.2,50.0,1,2,0,11.1,2,4,18,0,39.8,86.1,71.5,61.4,43.4,7.3,16,0,16,20.6,45,218,0,16,73.4,160,1.8,4,104.6,19,1,5.5,12,93,136,8.5,5.8,0.58
DeeJay Dallas,55632,HB,SEA,14,0.3,1,89.5, ,0,0,0,0.0,0,5,29,0,82.2,89.2,64.9,65.7,67.9,0.0,0,0,41,17.4,29,167,0,17,77.2,129,6.0,10,94.3,19,0,6.6,11,126,133,7.8,7.4,0.98
KhaDarel Hodge,26104,WR,ATL,16,12.9,2,68.4,40.0,2,5,0,7.1,1,7,2,0,64.4,72.7,77.0, ,76.4,0.0,0,0,39,0.0,0,83,0,13,95.2,79,19.3,16,120.9,19,1,80.7,67,202,61,4.7,15.5,2.56
Pharaoh Brown,12247,TE,CLV,16,6.5,2,63.2,75.0,3,4,0,14.3,2,6,8,0,47.7,72.3,59.1,59.9,58.1,67.8,103,1,30,20.4,31,152,1,12,74.3,113,21.7,33,58.4,19,0,8.6,13,117,85,7.1,9.8,1.04
Cam Sims,47908,WR,WAS,17,14.9,0,44.4,40.0,2,5,1,0.0,0,5,32,0,76.5,70.1,50.4, ,53.0,0.5,1,2,21,0.0,0,183,2,8,96.7,177,23.0,42,20.1,18,0,76.5,140,89,22,2.8,11.1,0.5
Cedrick Wilson,48170,WR,MIA,16,10.6,0,72.2,40.0,2,5,0,7.1,1,9,17,0,63.5,85.3,64.3, ,63.8,0.0,0,0,21,0.0,0,153,0,13,96.1,147,45.8,70,97.0,18,0,54.2,83,150,59,4.5,11.5,1.02
Michael Bandy,91824,WR,LAC,10,11.2,0,55.6,33.3,1,3,0,9.1,1,5,27,0,58.9,73.6,52.7,74.9,53.2,0.0,0,0,25,1.2,2,172,1,10,95.3,164,20.9,36,69.0,18,0,79.1,136,89,20,2.0,8.9,0.54
Justin Jackson,29539,HB,DET,12,1.2,4,70.6, ,0,0,0,25.0,4,7,11,0,28.7,86.6,58.6,65.5,47.0,3.0,4,0,15,18.2,24,132,1,12,75.8,100,7.6,10,105.3,17,1,19.7,26,101,111,9.3,8.4,1.01
Travis Homer,45859,HB,SEA,10,2.2,4,94.1, ,0,0,0,0.0,0,7,29,1,82.2,29.5,63.2,59.2,56.3,1.5,2,0,27,22.6,30,133,0,16,73.7,98,7.5,10,124.8,17,1,6.8,9,157,126,7.9,9.8,1.6
Tyler Allgeier,83639,HB,ATL,16,-2.2,5,94.1, ,0,0,0,0.0,0,8,2,0,82.7,90.8,86.7,56.7,61.6,0.8,2,0,26,24.0,59,246,0,16,72.0,177,1.6,4,120.3,17,1,5.7,14,139,172,10.8,8.7,0.79
Albert Okwuegbunam,41933,TE,DEN,7,6.2,5,58.8,25.0,1,4,0,16.7,2,4,10,0,41.1,71.1,55.4,29.8,51.9,34.0,52,0,25,2.6,4,153,0,10,89.5,137,49.0,75,94.0,17,1,17.0,26,95,57,5.7,9.5,0.69
Donald Parham,91014,TE,LAC,7,10.2,0,82.4,0.0,0,1,0,0.0,0,6,27,0,81.1,73.0,76.6,35.4,82.2,47.0,47,0,24,16.0,16,100,3,14,79.0,79,32.0,32,123.8,17,1,20.0,20,153,45,3.2,10.9,1.94
Kenny Golladay,11851,WR,NYG,14,10.4,0,35.3,14.3,1,7,0,25.0,2,4,21,0,31.8,69.5,55.6, ,54.7,0.0,0,0,25,0.0,0,166,0,6,92.2,153,19.3,32,71.0,17,1,80.7,134,81,11,1.8,13.5,0.53
Cam Akers,57206,HB,LA,15,0.8,5,76.5,100.0,1,1,0,0.0,0,8,26,0,80.0,64.2,80.7,73.9,61.5,0.0,0,0,18,18.2,38,209,0,13,78.9,165,1.4,3,94.5,17,0,5.3,11,117,138,10.6,9.0,0.71
Tre' McKitty,60896,TE,LAC,18,4.8,0,70.6,0.0,0,1,0,14.3,2,0,27,1,45.7,20.9,32.2,48.7,36.8,65.9,199,0,12,23.5,71,302,6,12,73.5,222,25.8,78,82.5,17,0,7.0,21,88,55,4.6,7.3,0.4
David Sills,34579,WR,NYG,9,7.9,0,64.7,100.0,1,1,1,8.3,1,7,21,0,61.8,71.9,55.9,75.1,59.8,0.0,0,1,24,1.4,2,140,4,11,90.0,126,19.3,27,57.5,17,0,80.7,113,106,40,3.6,9.6,0.84
DeSean Jackson,4363,WR,BLT,7,17.9,0,52.9,20.0,1,5,0,0.0,0,5,3,0,78.0,71.1,76.1, ,75.2,0.0,0,1,62,0.0,0,81,0,9,92.6,75,24.7,20,59.2,17,0,75.3,61,153,23,2.6,17.0,2.04
Jamaal Williams,11889,HB,DET,17,1.1,2,75.0, ,0,0,0,20.0,3,4,11,0,31.0,62.1,73.4,72.3,39.7,0.0,0,0,17,31.5,58,184,1,12,64.7,119,0.0,0,83.6,16,0,4.9,9,73,68,5.7,6.1,0.61
Chuba Hubbard,57373,HB,CAR,15,0.4,3,87.5,0.0,0,1,0,6.7,1,6,5,1,64.4,66.4,76.6,45.9,59.6,0.0,0,0,45,28.5,47,165,1,14,66.7,110,1.2,2,111.2,16,0,1.2,2,171,168,12.0,12.2,1.55
Geoff Swaim,9679,TE,TEN,17,2.1,0,75.0,50.0,1,2,0,14.3,2,4,31,0,45.7,71.9,58.5,58.2,48.5,83.9,161,0,13,39.1,75,192,1,12,58.9,113,10.9,21,100.5,16,1,3.1,6,58,46,3.8,4.8,0.51
Mark Ingram II,6180,HB,NO,10,-0.7,2,100.0, ,0,0,0,0.0,0,2,20,1,82.2,29.7,63.3,59.0,54.4,0.0,0,0,11,28.6,36,126,1,16,68.3,86,0.8,1,84.4,16,0,0.8,1,68,79,4.9,4.3,0.79
James Proche,48037,WR,BLT,15,10.0,2,50.0,0.0,0,1,0,11.1,1,3,3,0,57.0,78.3,44.6, ,52.4,0.0,0,0,12,0.0,0,148,5,8,91.9,136,74.3,110,59.9,16,0,25.7,38,62,17,2.1,7.8,0.46
Cole Beasley,7330,WR,BUF,6,6.3,1,68.8,0.0,0,1,0,8.3,1,6,4,0,60.2,71.5,71.2, ,70.2,0.0,0,2,29,0.0,0,74,0,11,93.2,69,85.1,63,67.4,16,1,14.9,11,103,62,5.6,9.4,1.49
Jack Stoll,42058,TE,PHI,20,7.6,0,75.0,100.0,3,3,0,0.0,0,5,24,0,80.0,73.1,49.7,55.6,45.3,66.8,191,0,26,14.3,41,286,1,12,81.1,232,24.5,70,97.9,16,0,6.6,19,128,50,4.2,10.7,0.55
Byron Pringle,42345,WR,CHI,11,15.5,0,66.7,100.0,3,3,0,0.0,0,8,6,0,78.0,71.1,62.9,71.6,64.7,1.2,2,1,35,2.5,4,161,3,10,94.4,152,27.3,44,106.9,15,2,71.4,115,135,15,1.5,13.5,0.89
Josiah Deguara,47034,TE,GB,17,3.1,0,86.7, ,0,0,0,0.0,0,4,12,0,80.6,73.4,57.2,34.3,62.8,27.0,34,0,25,14.3,18,126,0,13,81.0,102,42.1,53,98.3,15,0,11.1,14,114,65,5.0,8.8,1.12
K.J. Hamler,61590,WR,DEN,7,24.9,0,46.7, ,0,0,0,0.0,0,3,10,0,75.6,71.1,57.5, ,55.4,0.0,0,1,55,0.0,0,164,1,7,95.1,156,18.9,31,59.0,15,0,81.1,133,165,23,3.3,23.6,1.06
T.Y. Hilton,7092,WR,DAL,5,16.7,1,66.7,40.0,2,5,0,23.1,3,7,9,0,29.5,71.1,69.6, ,69.0,0.0,0,0,52,0.0,0,83,0,10,95.2,79,44.6,37,101.8,15,0,55.4,46,159,47,4.7,15.9,2.01
Peyton Hendershot,60915,TE,DAL,18,7.5,1,73.3,50.0,3,6,0,8.3,1,8,9,0,51.7,21.7,57.2,51.4,62.1,41.7,55,1,29,11.4,15,132,4,11,86.4,114,46.2,61,103.6,15,2,9.8,13,103,49,4.5,9.4,0.9
Patrick Ricard,48862,FB,BLT,18,0.3,2,73.3,100.0,1,1,1,0.0,0,1,3,0,60.2,75.5,71.2,64.5,45.5,58.3,169,1,19,37.2,108,290,5,11,61.4,178,21.0,61,56.0,15,0,5.9,17,74,73,6.6,6.7,0.42
Tanner Hudson,66924,TE,NYG,11,7.1,0,66.7,0.0,0,4,0,0.0,0,8,21,0,78.0,71.1,60.1,30.0,59.8,42.0,79,0,27,5.9,11,188,1,10,87.8,165,25.5,48,94.3,15,0,25.5,48,132,64,6.4,13.2,0.8
Connor Heyward,57301,TE,PIT,14,7.3,1,80.0,100.0,3,3,0,7.7,1,6,25,0,62.1,73.0,74.1,31.6,77.6,57.8,52,1,45,4.4,4,90,0,12,90.0,81,36.7,33,103.1,15,1,5.6,5,151,64,5.3,12.6,1.86
Zonovan Knight,97432,HB,NYJ,7,-2.2,6,92.9, ,0,0,0,7.1,1,5,22,1,63.5,40.6,71.8,69.7,54.2,2.1,2,0,16,19.1,18,94,0,13,77.7,73,0.0,0,96.4,14,0,6.4,6,100,133,10.2,7.7,1.37
Joe Fortson,94384,TE,KC,15,8.3,0,64.3,40.0,2,5,0,0.0,0,6,16,0,78.0,20.6,62.8,29.4,62.7,17.8,23,0,40,3.9,5,129,1,9,91.5,118,45.7,59,127.4,14,2,36.4,47,108,38,4.2,12.0,0.92
Justice Hill,45865,HB,BLT,16,-1.9,0,100.0,100.0,1,1,0,0.0,0,2,3,1,81.1,29.7,60.8,54.7,52.6,4.9,9,0,15,26.6,49,184,1,14,70.7,130,10.3,19,86.9,14,0,7.1,13,68,95,6.8,4.9,0.52
River Cracraft,47417,WR,MIA,12,9.3,0,64.3,33.3,1,3,0,0.0,0,8,17,0,78.0,72.0,75.1, ,73.5,0.0,0,1,22,0.0,0,92,0,9,96.7,89,32.6,30,95.8,14,2,66.3,61,102,25,2.8,11.3,1.15
Avery Williams,42873,HB,ATL,15,-2.0,3,92.9, ,0,0,0,0.0,0,3,2,0,80.6,65.6,61.1,22.4,66.5,3.3,3,0,10,22.2,20,90,0,13,74.4,67,21.1,19,84.8,14,0,8.9,8,61,86,6.6,4.7,0.91
Kyle Philips,84463,WR,TEN,4,7.8,0,61.5,66.7,2,3,0,11.1,1,3,31,0,54.5,76.3,63.7, ,63.7,0.0,0,0,21,0.0,0,54,0,8,88.9,48,61.1,33,78.4,13,0,35.2,19,78,19,2.4,9.8,1.63
J.K. Dobbins,57366,HB,BLT,9,0.7,3,84.6, ,0,0,0,0.0,0,6,3,0,78.7,66.8,75.7,59.0,68.5,0.0,0,0,27,23.7,27,114,0,11,74.6,85,13.2,15,133.5,13,2,7.0,8,85,78,7.1,7.7,1.0
Sony Michel,27589,HB,LAC,10,0.3,2,69.2, ,0,0,0,18.2,2,1,27,0,38.4,81.4,58.5,72.7,45.5,0.0,0,1,9,23.8,20,84,1,9,72.6,61,14.3,12,44.7,13,0,0.0,0,53,50,5.6,5.9,0.87
Mike Boone,31615,HB,DEN,9,4.2,1,69.2,100.0,1,1,0,18.2,2,2,10,0,38.4,79.3,53.2,42.1,47.1,0.0,0,0,34,21.4,21,98,0,9,74.5,73,6.1,6,90.5,13,0,11.2,11,96,84,9.3,10.7,1.32
Anthony Firkser,51837,TE,ATL,11,8.5,0,69.2,40.0,2,5,0,0.0,0,5,2,0,77.3,70.6,59.1,80.3,58.7,14.0,15,0,22,5.6,6,107,0,9,91.6,98,70.1,75,91.8,13,0,15.9,17,100,17,1.9,11.1,1.02
Tom Kennedy,94379,WR,DET,7,9.5,0,61.5,0.0,0,1,0,0.0,0,7,11,0,77.3,71.1,59.3,65.7,62.8,0.0,0,1,44,0.7,1,138,1,8,90.6,125,50.0,69,66.5,13,0,50.0,69,141,75,9.4,17.6,1.13
Shane Zylstra,143786,TE,DET,12,7.6,0,84.6,100.0,1,1,0,8.3,1,6,11,0,60.6,73.2,59.2,25.3,55.2,27.0,38,0,14,2.1,3,141,1,11,92.9,131,33.3,47,125.5,13,4,39.7,56,60,12,1.1,5.5,0.46
James Robinson,22425,HB,NYJ,11,-0.2,1,84.6, ,0,0,0,0.0,0,5,22,0,78.7,68.6,59.7,81.5,57.5,0.0,0,0,10,14.3,19,133,0,11,79.7,106,5.3,7,122.6,13,2,9.0,12,51,67,6.1,4.6,0.48
Jalen Reagor,61697,WR,MIN,14,13.6,0,61.5,0.0,0,1,0,0.0,0,5,18,0,76.5,23.4,68.2, ,68.2,0.0,0,2,38,0.0,0,55,0,8,96.4,53,38.2,21,72.8,13,1,60.0,33,104,27,3.4,13.0,1.96
Jalen Nailor,84292,WR,MIN,6,12.4,1,75.0,100.0,1,1,0,0.0,0,7,18,0,77.3,70.6,91.6, ,90.8,0.0,0,1,47,0.0,0,31,0,9,100.0,31,22.6,7,109.7,12,1,71.0,22,179,68,7.6,19.9,5.77
Eric Tomlinson,9786,TE,DEN,17,6.0,0,75.0,50.0,1,2,0,0.0,0,5,10,0,77.3,70.6,58.2,58.6,54.3,92.6,150,0,18,37.0,60,162,3,9,59.9,97,4.9,8,131.6,12,2,1.9,3,79,44,4.9,8.8,0.81
Raheem Blackshear,57385,HB,CAR,10,-1.4,4,83.3, ,0,0,0,0.0,0,3,5,0,78.0,85.0,70.3,68.8,71.4,0.0,0,1,27,2.0,1,49,0,10,95.9,47,6.1,3,64.2,12,0,10.2,5,93,111,11.1,9.3,1.98
Jamison Crowder,9538,WR,BUF,4,9.9,0,50.0,25.0,1,4,0,14.3,1,4,4,0,49.2,79.5,53.2, ,54.9,0.0,0,1,16,0.0,0,74,0,6,95.9,71,87.8,65,29.9,12,0,12.2,9,60,30,5.0,10.0,0.85
Zack Moss,40341,HB,IND,11,-0.2,6,91.7, ,0,0,0,8.3,1,2,14,0,60.2,64.9,71.1,62.3,50.7,0.0,0,0,8,28.6,40,140,0,11,69.3,97,2.1,3,80.2,12,0,2.9,4,39,43,3.9,3.5,0.4
Brandon Johnson,40666,WR,DEN,7,15.5,1,50.0,33.3,1,3,0,0.0,0,2,10,0,74.6,70.3,51.8, ,51.4,0.7,1,1,12,0.0,0,138,0,6,92.8,128,12.3,17,51.4,12,1,87.0,120,42,13,2.2,7.0,0.33
Brian Robinson Jr.,57120,HB,WAS,12,-0.8,3,75.0,100.0,1,1,0,10.0,1,3,32,0,56.7,71.6,82.5,46.9,65.2,0.0,0,1,18,23.2,26,112,0,9,74.1,83,1.8,2,78.5,12,1,1.8,2,60,72,8.0,6.7,0.72
Hassan Haskins,83701,HB,TEN,14,-0.7,2,91.7,100.0,1,1,0,8.3,1,2,31,0,60.2,84.2,59.2,52.3,54.7,8.5,10,0,10,28.2,33,117,0,11,69.2,81,3.4,4,86.5,12,0,3.4,4,57,60,5.5,5.2,0.7
Taysom Hill,12112,TE,NO,16,6.7,2,75.0,0.0,0,2,0,18.2,2,5,20,0,38.4,49.1,75.6,80.6,52.2,23.0,35,0,30,1.3,2,152,1,9,80.9,123,23.7,36,130.6,12,2,36.8,56,76,36,4.0,8.4,0.62
Velus Jones Jr.,40573,WR,CHI,11,19.2,0,58.3,33.3,1,3,0,12.5,1,4,6,0,52.1,44.6,64.9, ,62.8,0.0,0,0,44,0.0,0,74,0,7,95.9,71,18.9,14,115.6,12,1,79.7,59,107,42,6.0,15.3,1.51
C.J. Ham,11347,FB,MIN,18,5.3,2,83.3,0.0,0,1,0,0.0,0,7,18,0,78.0,73.4,59.8,54.7,77.7,19.5,16,0,17,37.8,31,82,0,10,57.3,47,8.5,7,96.5,12,0,4.9,4,86,57,5.7,8.6,1.83
Jeff Smith,48055,WR,NYJ,11,13.1,0,66.7,0.0,0,2,0,0.0,0,5,22,0,76.5,70.1,70.2, ,71.3,2.6,2,1,50,0.0,0,76,0,8,98.7,75,25.0,19,69.4,12,0,71.1,54,134,41,5.1,16.8,1.79
Dyami Brown,77986,WR,WAS,15,27.3,1,41.7,50.0,1,2,0,0.0,0,5,32,0,73.4,69.1,65.8, ,68.3,0.0,0,0,75,0.0,0,90,0,5,96.7,87,30.0,27,126.0,12,2,70.0,63,143,31,6.2,28.6,1.64
D'Wayne Eskridge,29573,WR,SEA,9,3.7,1,58.3,0.0,0,1,1,0.0,0,4,29,0,75.6,76.1,54.1,62.4,57.5,1.0,1,0,16,1.0,1,101,3,7,92.1,93,62.4,63,70.8,12,0,36.6,37,58,45,6.4,8.3,0.62
Teagan Quitoriano,84036,TE,HST,9,11.8,0,58.3,50.0,1,2,1,0.0,0,5,13,0,75.6,69.5,49.4,55.4,59.9,76.6,128,1,52,20.4,34,167,2,7,73.7,123,18.6,31,94.8,12,2,4.2,7,113,53,7.6,16.1,0.92
Ko Kieft,41372,TE,TB,17,5.4,0,63.6,100.0,1,1,0,22.2,2,5,30,0,31.8,70.6,62.7,68.6,58.6,67.7,65,0,19,27.1,26,96,3,7,68.8,66,0.0,0,115.7,11,1,1.0,1,80,32,4.6,11.4,1.21
Andrew Beck,47121,FB,DEN,11,4.8,0,45.5,25.0,1,4,0,16.7,1,2,10,0,46.3,70.0,48.4,61.3,53.3,44.8,30,1,27,20.9,14,67,1,5,74.6,50,11.9,8,28.2,11,0,3.0,2,69,47,9.4,13.8,1.38
Khalil Herbert,41668,HB,CHI,13,-2.8,2,81.8,0.0,0,1,0,18.2,2,2,6,0,38.4,90.0,72.5,54.4,46.5,0.7,1,0,25,22.2,32,144,0,9,74.3,107,9.0,13,118.6,11,1,5.6,8,57,85,9.4,6.3,0.53
Kyren Williams,97118,HB,LA,8,1.0,2,81.8, ,0,0,0,0.0,0,5,26,0,77.3,81.2,67.2,26.0,61.5,0.0,0,1,15,16.8,16,95,0,9,82.1,78,6.3,6,57.6,11,0,5.3,5,76,84,9.3,8.4,0.97
Quintin Morris,61182,TE,BUF,16,7.4,0,90.9,100.0,1,1,0,0.0,0,7,4,1,78.0,19.8,45.5,52.9,47.4,37.5,72,0,26,7.3,14,192,1,10,87.5,168,37.0,71,135.6,11,1,19.8,38,102,53,5.3,10.2,0.61
Parker Hesse,48369,TE,ATL,17,5.6,0,81.8,0.0,0,1,1,0.0,0,6,2,0,77.3,70.6,61.2,70.9,55.7,66.9,170,0,22,43.7,111,254,5,9,52.8,134,18.1,46,100.4,11,0,5.5,14,89,38,4.2,9.9,0.66
Dan Arnold,51842,TE,JAX,18,7.8,1,81.8,100.0,1,1,0,10.0,1,5,15,0,60.2,71.5,60.1,27.7,66.5,46.8,36,0,26,5.2,4,77,2,9,87.0,67,36.4,28,117.8,11,0,15.6,12,135,75,8.3,15.0,2.01
Brycen Hopkins,47338,TE,LA,13,10.6,0,63.6,100.0,1,1,0,0.0,0,5,26,0,75.6,69.5,63.6,57.7,64.0,55.8,53,0,22,6.3,6,95,1,7,90.5,86,10.5,10,96.4,11,0,31.6,30,109,31,4.4,15.6,1.27
James Mitchell,77885,TE,DET,13,5.2,1,100.0, ,0,0,0,0.0,0,7,11,0,78.7,71.5,66.9,82.7,76.3,56.0,51,0,22,15.4,14,91,1,11,82.4,75,16.5,15,139.8,11,1,25.3,23,113,62,5.6,10.3,1.51
Jonathan Williams,10790,HB,WAS,8,-0.9,0,70.0, ,0,0,0,12.5,1,2,32,0,52.5,81.6,62.0,81.6,50.3,0.0,0,0,21,9.8,6,61,0,7,85.2,52,34.4,21,77.1,10,0,1.6,1,40,40,5.7,5.7,0.77
Michael Woods II,84117,WR,CLV,10,17.7,0,50.0, ,0,0,0,0.0,0,3,8,0,74.6,68.8,53.5,75.6,53.4,1.0,1,1,15,2.9,3,104,0,5,89.4,93,33.7,35,22.9,10,0,64.4,67,45,16,3.2,9.0,0.48
Andre Baccellia,47901,WR,ARZ,8,8.9,0,70.0,100.0,1,1,0,0.0,0,4,1,0,75.6,69.5,56.4, ,57.4,0.0,0,0,11,0.0,0,80,0,7,93.8,75,13.8,11,79.2,10,0,86.3,69,45,13,1.9,6.4,0.6
Trent Taylor,11932,WR,CIN,9,4.5,1,60.0,0.0,0,1,0,0.0,0,1,7,0,74.6,25.6,53.8,65.7,53.4,0.0,0,0,34,1.1,1,87,1,6,90.8,79,86.2,75,77.9,10,0,13.8,12,62,42,7.0,10.3,0.78
Deven Thompkins,84480,WR,TB,5,7.6,4,50.0,0.0,0,2,0,0.0,0,1,30,0,73.4,43.1,58.8, ,55.7,0.0,0,0,13,0.0,0,46,0,5,97.8,45,15.2,7,57.1,10,0,82.6,38,32,34,6.8,6.4,0.71
Montrell Washington,64310,WR,DEN,14,18.6,1,40.0,0.0,0,3,0,20.0,1,0,10,0,42.1,36.4,56.6, ,48.4,0.0,0,0,4,0.0,0,55,0,4,94.5,52,65.5,36,47.9,10,0,29.1,16,2,14,3.5,0.5,0.04
Anthony Schwartz,84135,WR,CLV,10,14.6,0,40.0,0.0,0,2,1,33.3,2,2,8,1,28.6,18.9,50.8, ,47.3,0.0,0,0,19,0.0,0,66,1,4,93.9,62,45.5,30,56.7,10,0,54.5,36,51,30,7.5,12.8,0.82
Reggie Gilliam,40951,FB,BUF,16,6.2,3,80.0, ,0,0,0,0.0,0,4,4,0,76.5,70.1,60.1,75.1,60.1,33.0,30,0,14,6.6,6,91,1,8,92.3,84,28.6,26,128.8,10,1,12.1,11,69,54,6.8,8.6,0.82
Craig Reynolds,94383,HB,DET,8,0.8,7,90.0, ,0,0,0,10.0,1,5,11,0,58.9,79.2,68.9,44.5,69.5,0.0,0,0,36,29.8,25,84,0,9,61.9,52,0.0,0,115.0,10,0,4.8,4,116,111,12.3,12.9,2.23
Marlon Mack,11898,HB,DEN,5,-1.3,3,88.9, ,0,0,0,0.0,0,2,10,0,76.5,77.9,86.2,83.9,78.4,0.0,0,0,66,22.2,10,45,0,8,75.6,34,2.2,1,149.5,9,1,0.0,0,99,114,14.3,12.4,2.91
Brandon Bolden,7469,HB,LV,10,3.1,2,100.0, ,0,0,0,0.0,0,2,23,0,77.3,77.8,50.9,26.8,67.1,0.0,0,0,18,6.2,4,65,1,9,87.7,57,4.6,3,130.1,9,1,6.2,4,57,29,3.2,6.3,1.0
Nick Vannett,10728,TE,NYG,10,3.6,0,66.7,40.0,2,5,1,0.0,0,1,21,0,75.6,69.5,44.3,28.6,52.2,66.1,72,0,15,17.4,19,109,1,6,79.8,87,19.3,21,83.1,9,0,11.9,13,55,31,5.2,9.2,0.63
Mike Thomas,10840,WR,CIN,10,14.8,0,22.2,0.0,0,2,0,50.0,2,1,7,0,28.0,65.8,49.2, ,47.4,0.0,0,1,33,0.0,0,127,0,2,91.3,116,15.0,19,5.1,9,0,85.0,108,38,24,12.0,19.0,0.33
Giovanni Ricci,13756,TE,CAR,13,6.0,2,88.9,100.0,1,1,0,0.0,0,3,5,0,76.5,70.1,63.6,76.4,61.3,65.8,52,0,32,17.7,14,79,0,8,78.5,62,17.7,14,113.0,9,0,6.3,5,100,52,6.5,12.5,1.61
Samori Toure,25276,WR,GB,10,19.8,1,55.6, ,0,0,0,0.0,0,2,12,1,73.4,16.0,49.3, ,50.8,1.1,1,0,37,0.0,0,87,1,5,92.0,80,63.2,55,123.4,9,1,35.6,31,82,10,2.0,16.4,1.03
N'Keal Harry,48297,WR,CHI,7,16.6,0,77.8,75.0,3,4,0,0.0,0,4,6,0,75.6,69.5,65.1, ,66.5,0.0,0,0,49,0.0,0,88,0,7,89.8,79,25.0,22,155.8,9,1,75.0,66,116,16,2.3,16.6,1.47
Michael Strachan,143358,WR,IND,13,17.6,0,33.3,25.0,1,4,0,0.0,0,3,14,0,70.5,65.8,61.7, ,60.1,0.0,0,0,23,0.0,0,78,1,3,97.4,76,6.4,5,57.2,9,0,93.6,73,59,11,3.7,19.7,0.78
Chris Myarick,47358,TE,NYG,15,2.9,1,87.5,100.0,1,1,1,12.5,1,5,21,0,52.5,69.5,63.2,44.9,61.6,76.9,90,0,23,34.2,40,117,2,7,61.5,72,9.4,11,140.1,8,1,6.8,8,65,40,5.7,9.3,0.9
Ryan Griffin,7982,TE,CHI,14,7.0,0,50.0,50.0,1,2,0,0.0,0,1,6,0,72.1,67.0,52.7,64.5,51.4,79.7,51,0,18,26.6,17,64,3,4,70.3,45,18.8,12,57.3,8,0,0.0,0,26,10,2.5,6.5,0.58
Jameson Williams,101701,WR,DET,6,19.3,0,12.5, ,0,0,0,66.7,2,1,11,0,27.3,66.2,63.4, ,57.5,0.0,0,0,41,0.0,0,40,0,1,92.5,37,25.0,10,88.0,8,1,75.0,30,41,5,5.0,41.0,1.11
Chris Manhertz,10211,TE,JAX,19,2.6,0,75.0, ,0,0,0,14.3,1,2,15,0,49.2,70.1,56.4,80.5,38.9,93.7,149,0,21,38.4,61,159,3,6,57.9,92,1.3,2,86.5,8,0,1.3,2,42,35,5.8,7.0,0.46
Grant Calcaterra,60997,TE,PHI,15,9.9,1,62.5, ,0,0,0,16.7,1,3,24,0,46.3,68.0,60.9,73.3,56.8,47.9,45,0,40,13.8,13,94,1,5,84.0,79,36.2,34,96.4,8,0,12.8,12,81,42,8.4,16.2,1.03
D'Onta Foreman,11844,HB,CAR,17,0.1,2,62.5, ,0,0,1,0.0,0,1,5,0,73.4,80.2,73.1,14.8,52.4,0.0,0,1,23,10.6,14,132,1,5,84.8,112,0.0,0,28.1,8,0,0.0,0,26,29,5.8,5.2,0.23
Laquon Treadwell,10657,WR,SEA,7,5.6,1,75.0,0.0,0,1,0,14.3,1,3,29,0,49.2,68.8,55.9, ,54.7,0.0,0,0,17,0.0,0,81,0,6,96.3,78,28.4,23,86.5,8,0,71.6,58,42,12,2.0,7.0,0.54
Jordan Wilkins,26618,HB,IND,3,-2.3,1,75.0,0.0,0,1,0,14.3,1,1,14,0,49.2,76.0,59.1,59.5,52.2,0.0,0,0,10,15.4,4,26,0,6,80.8,21,7.7,2,79.7,8,0,7.7,2,29,44,7.3,4.8,1.38
Royce Freeman,45747,HB,HST,4,-0.3,0,85.7,50.0,1,2,0,0.0,0,0,13,0,74.6,41.0,59.2,80.3,61.3,0.0,0,0,9,35.2,19,54,0,6,59.3,32,9.3,5,86.3,7,0,3.7,2,33,39,6.5,5.5,1.03
Cole Turner,84330,TE,WAS,9,9.1,0,28.6,33.3,1,3,0,0.0,0,1,32,0,68.3,64.0,52.9,64.4,47.1,26.8,26,0,18,19.6,19,97,1,2,74.2,72,55.7,54,40.8,7,0,14.4,14,23,6,3.0,11.5,0.32
Cade Johnson,42109,WR,SEA,3,9.3,0,71.4,0.0,0,1,0,0.0,0,4,29,0,73.4,68.0,61.7,62.4,60.9,2.7,2,0,24,1.4,1,74,0,5,93.2,69,75.7,56,97.3,7,0,21.6,16,60,15,3.0,12.0,0.87
Chris Conley,9509,WR,TEN,9,12.4,0,57.1,66.7,2,3,0,20.0,1,2,31,0,42.1,67.0,53.8, ,53.5,0.0,0,0,27,0.0,0,82,0,4,91.5,75,18.3,15,77.1,7,0,81.7,67,46,3,0.8,11.5,0.61
Darrel Williams,13014,HB,ARZ,5,-2.3,0,57.1,0.0,0,1,0,20.0,1,0,1,0,73.4,78.4,64.9,29.6,53.2,0.0,0,0,6,13.3,10,75,1,4,77.3,58,14.7,11,62.2,7,0,6.7,5,9,15,3.8,2.3,0.16
Stephen Anderson,11160,TE,ARZ,14,5.6,0,42.9,50.0,1,2,0,50.0,3,0,1,0,26.5,65.8,33.9,19.6,30.0,63.5,40,0,6,17.5,11,63,0,3,76.2,48,19.0,12,50.3,7,0,6.3,4,9,6,2.0,3.0,0.19
Phillip Lindsay,12660,HB,IND,3,2.6,1,85.7,100.0,1,1,0,0.0,0,0,14,0,74.6,77.2,64.3,68.8,60.3,0.0,0,0,7,24.4,11,45,0,6,68.9,31,0.0,0,79.2,7,0,6.7,3,19,12,2.0,3.2,0.61
Corey Clement,12253,HB,ARZ,4,-0.4,1,71.4, ,0,0,0,16.7,1,3,1,0,45.8,76.8,63.9,12.4,69.2,0.0,0,0,21,13.5,7,52,0,5,78.8,41,11.5,6,93.8,7,0,7.7,4,54,61,12.2,10.8,1.32
Jake Kumerow,9883,WR,BUF,6,10.9,0,57.1,100.0,1,1,0,0.0,0,4,4,0,72.1,67.0,62.0, ,62.8,3.6,2,0,39,0.0,0,55,0,4,96.4,53,12.7,7,87.8,7,0,83.6,46,64,19,4.8,16.0,1.21
Pierre Strong Jr.,66619,HB,NE,5,0.4,1,100.0, ,0,0,0,0.0,0,3,19,0,75.6,77.5,80.5,76.5,67.4,0.0,0,0,16,14.3,4,28,0,7,78.6,22,14.3,4,91.7,7,0,7.1,2,42,39,5.6,6.0,1.91
Marcedes Lewis,2973,TE,GB,17,9.0,0,85.7,100.0,1,1,0,14.3,1,5,12,0,52.1,69.5,65.6,72.9,51.9,94.9,185,0,31,37.4,73,195,0,6,58.5,114,2.1,4,145.5,7,2,3.1,6,66,15,2.5,11.0,0.58
Troy Hairston II,65088,FB,HST,16,1.9,0,71.4,0.0,0,1,0,16.7,1,0,13,0,45.8,68.0,48.4,53.6,44.6,0.0,0,0,7,37.9,22,58,0,5,56.9,33,0.0,0,74.1,7,0,0.0,0,19,10,2.0,3.8,0.58
Trestan Ebner,57159,HB,CHI,10,-0.7,0,28.6, ,0,0,0,0.0,0,0,6,2,70.5,81.8,52.5,75.5,53.1,0.0,0,0,6,7.7,3,39,0,2,89.7,35,25.6,10,39.6,7,0,5.1,2,8,-1,-0.5,4.0,0.23
Boston Scott,39462,HB,PHI,18,-2.1,4,85.7, ,0,0,0,0.0,0,0,24,0,75.6,87.6,64.4,60.8,52.5,0.0,0,0,9,7.9,9,114,0,6,89.5,102,6.1,7,81.0,7,0,11.4,13,24,34,5.7,4.0,0.24
Zander Horvath,57384,FB,LAC,15,1.6,0,71.4,0.0,0,1,0,0.0,0,2,27,0,45.8,71.6,55.1,40.7,46.9,22.7,10,0,5,15.9,7,44,0,5,72.7,32,9.1,4,113.7,7,2,9.1,4,8,1,0.2,1.6,0.25
Tony Jones Jr.,40498,HB,SEA,4,-2.4,1,71.4,0.0,0,1,0,16.7,1,0,29,0,29.2,74.7,50.8,66.1,38.6,0.0,0,1,9,17.0,9,53,0,5,75.5,40,3.8,2,39.9,7,0,5.7,3,30,34,6.8,6.0,0.75
Dax Milne,84147,WR,WAS,12,5.3,1,85.7, ,0,0,0,0.0,0,2,32,0,74.6,90.3,60.8, ,61.8,0.0,0,0,12,0.0,0,37,0,6,94.6,35,54.1,20,128.3,7,1,45.9,17,37,14,2.3,6.2,1.06
Gary Brightwell,57133,HB,NYG,7,0.6,1,71.4,0.0,0,1,0,0.0,0,4,21,0,73.4,65.7,67.7,78.1,63.4,1.9,1,0,12,5.7,3,53,0,5,92.5,49,3.8,2,84.8,7,0,3.8,2,39,36,7.2,7.8,0.8
Racey McMath,61401,WR,TEN,4,26.9,0,28.6,0.0,0,3,1,0.0,0,1,31,0,68.3,66.2,56.1, ,58.3,0.0,0,1,39,0.0,0,49,1,2,95.9,47,16.3,8,11.3,7,0,83.7,41,40,5,2.5,20.0,0.85
Jakob Johnson,32565,FB,LV,17,1.0,1,83.3,0.0,0,1,0,0.0,0,0,23,0,73.4,69.5,50.1,77.3,51.8,13.5,13,0,5,30.2,29,96,3,5,66.7,64,0.0,0,79.2,6,0,8.3,8,10,8,1.6,2.0,0.16
Dezmon Patmon,48329,WR,IND,1,14.5,0,33.3,0.0,0,1,0,33.3,1,1,14,0,29.9,64.0,55.4, ,55.3,0.0,0,1,17,0.0,0,16,0,2,93.8,15,31.3,5,6.9,6,0,68.8,11,24,7,3.5,12.0,1.6
Tyler Kroft,9518,TE,SF,13,10.7,0,66.7, ,0,0,0,0.0,0,2,28,0,72.1,67.0,64.9,46.2,52.5,78.2,61,0,28,19.2,15,78,1,4,76.9,60,12.8,10,97.2,6,0,9.0,7,57,14,3.5,14.3,0.95
Tylan Wallace,61577,WR,BLT,8,15.0,1,66.7,100.0,1,1,0,0.0,0,1,3,0,72.1,67.0,57.3, ,55.0,0.0,0,0,12,0.0,0,47,0,4,95.7,45,23.4,11,80.6,6,0,76.6,36,33,12,3.0,8.3,0.73
Charlie Kolar,60917,TE,BLT,1,8.0,0,66.7,50.0,1,2,0,0.0,0,3,3,0,72.1,67.0,74.8, ,69.7,10.7,3,0,15,0.0,0,28,0,4,96.4,27,82.1,23,91.7,6,0,7.1,2,49,23,5.8,12.3,1.81
Danny Gray,121926,WR,SF,14,24.5,0,16.7,0.0,0,1,0,0.0,0,1,28,0,64.7,64.6,53.5, ,52.0,0.0,0,0,10,0.0,0,33,1,1,97.0,32,21.2,7,39.6,6,0,78.8,26,10,4,4.0,10.0,0.31
Malik Davis,57196,HB,DAL,6,-0.8,1,100.0, ,0,0,0,0.0,0,5,9,0,74.6,81.5,80.6,34.1,90.1,0.0,0,0,18,17.9,7,39,0,6,79.5,31,2.6,1,110.4,6,0,5.1,2,63,68,11.3,10.5,2.03
Tyrie Cleveland,42134,WR,DEN,4,11.5,2,33.3, ,0,0,0,0.0,0,1,10,0,29.9,68.7,52.0, ,51.9,2.1,1,1,16,0.0,0,47,0,2,85.1,40,27.7,13,9.7,6,0,70.2,33,28,17,8.5,14.0,0.7
Gunner Olszewski,95015,WR,PIT,12,8.7,1,83.3,50.0,1,2,0,0.0,0,1,25,0,73.4,29.4,57.6, ,54.5,1.2,1,0,31,0.0,0,83,0,5,96.4,80,80.7,67,103.5,6,0,18.1,15,53,15,3.0,10.6,0.66
Malcolm Brown,9902,HB,LA,9,0.0,0,83.3,100.0,1,1,0,0.0,0,2,26,0,73.4,77.3,62.5,75.7,63.2,0.0,0,0,13,27.1,19,70,0,5,71.4,50,8.6,6,92.4,6,0,10.0,7,37,37,7.4,7.4,0.74
Elijah Mitchell,57272,HB,SF,7,-1.5,1,83.3, ,0,0,0,0.0,0,2,28,0,73.4,85.0,81.7,72.4,83.4,0.0,0,0,18,2.9,1,35,1,5,97.1,34,14.3,5,128.5,6,1,5.7,2,32,39,7.8,6.4,0.94
Dennis Houston,61295,WR,DAL,2,14.3,1,33.3,100.0,2,2,0,0.0,0,0,9,0,68.3,64.0,54.6, ,54.7,0.0,0,0,11,0.0,0,52,0,2,92.3,48,7.7,4,42.4,6,0,92.3,48,16,6,3.0,8.0,0.33
Myles Gaskin,45914,HB,MIA,2,2.7,3,66.7,0.0,0,1,0,0.0,0,0,17,0,72.1,74.4,65.0,75.0,62.1,0.0,0,0,16,4.0,1,25,0,4,88.0,22,12.0,3,77.1,6,0,12.0,3,28,20,5.0,7.0,1.27
Armani Rogers,40034,TE,WAS,11,2.0,1,83.3, ,0,0,0,0.0,0,4,32,0,73.4,70.0,59.4,23.8,65.3,32.8,22,0,23,9.0,6,67,1,5,91.0,61,46.3,31,111.1,6,0,11.9,8,64,56,11.2,12.8,1.05
Freddie Swain,26448,WR,DEN,4,10.5,0,66.7, ,0,0,0,0.0,0,3,10,0,72.1,16.4,61.8, ,61.6,0.0,0,1,52,0.0,0,69,0,4,97.1,67,73.9,51,69.4,6,0,26.1,18,74,29,7.3,18.5,1.1
Rashaad Penny,27414,HB,SEA,5,-2.2,1,80.0, ,0,0,0,0.0,0,2,29,0,73.4,50.8,70.2,43.9,55.6,0.0,0,0,6,17.9,17,95,0,4,76.8,73,7.4,7,80.0,5,0,12.6,12,16,27,6.8,4.0,0.22
Derek Watt,10832,FB,PIT,9,2.2,0,100.0, ,0,0,0,0.0,0,1,25,0,73.4,74.3,73.4,73.9,69.5,33.3,6,0,5,11.1,2,18,0,5,88.9,16,16.7,3,118.8,5,1,5.6,1,11,4,0.8,2.2,0.69
Cody Hollister,12052,WR,TEN,10,15.8,0,60.0,100.0,1,1,0,0.0,0,2,31,0,70.5,65.8,61.7,65.2,60.7,0.0,0,1,27,1.8,1,55,2,3,89.1,49,14.5,8,57.5,5,0,85.5,47,54,8,2.7,18.0,1.1
Ross Dwelley,20994,TE,SF,8,13.6,0,60.0,50.0,1,2,0,0.0,0,3,28,0,70.5,65.8,60.3,53.5,62.9,38.2,21,0,56,5.5,3,55,0,3,87.3,48,43.6,24,143.8,5,1,14.5,8,105,45,15.0,35.0,2.19
Andy Isabella,47448,WR,BLT,5,14.0,0,40.0,0.0,0,1,0,0.0,0,2,3,0,68.3,66.2,50.8, ,53.9,0.0,0,0,11,0.0,0,52,1,2,98.1,51,34.6,18,52.9,5,0,65.4,34,21,5,2.5,10.5,0.41
Ronnie Rivers,57208,HB,LA,2,-5.0,2,100.0, ,0,0,0,0.0,0,1,26,0,73.4,74.3,64.6, ,80.6,0.0,0,0,14,0.0,0,13,0,5,100.0,13,0.0,0,90.8,5,0,0.0,0,29,54,10.8,5.8,2.23
Salvon Ahmed,57472,HB,MIA,7,3.0,1,80.0,0.0,0,1,0,0.0,0,2,17,0,72.1,76.9,73.5,27.0,79.9,0.0,0,0,20,26.5,13,49,0,4,67.3,33,26.5,13,110.8,5,0,6.1,3,53,41,10.3,13.3,1.61
Stone Smartt,60492,TE,LAC,7,4.8,0,80.0, ,0,0,0,0.0,0,1,27,0,72.1,67.0,51.6,80.7,54.0,20.0,10,0,8,4.0,2,50,0,4,96.0,48,50.0,25,80.8,5,0,30.0,15,17,6,1.5,4.3,0.35
Kevin White,9440,WR,NO,7,18.0,1,40.0,0.0,0,2,0,33.3,1,2,20,0,29.9,64.0,54.4, ,52.8,0.0,0,1,64,0.0,0,78,0,2,96.2,75,21.8,17,47.9,5,0,78.2,61,74,68,34.0,37.0,0.99
Kyle Rudolph,6195,TE,TB,9,10.6,0,60.0, ,0,0,0,25.0,1,2,30,0,36.2,65.8,40.0,67.6,49.7,81.4,35,0,12,2.3,1,43,1,3,95.3,41,11.6,5,115.0,5,1,7.0,3,28,3,1.0,9.3,0.68
Tyler Davis,47743,TE,GB,17,2.8,0,80.0,100.0,1,1,0,0.0,0,1,12,0,72.1,67.0,56.7,53.9,50.8,62.7,42,1,23,28.4,19,67,0,4,70.1,47,16.4,11,48.8,5,0,20.9,14,26,27,6.8,6.5,0.55
Demetric Felton,40568,WR,CLV,5,3.8,0,40.0, ,0,0,0,0.0,0,0,8,0,68.3,76.7,50.8, ,51.9,0.0,0,0,5,0.0,0,25,0,2,100.0,25,68.0,17,47.9,5,0,28.0,7,8,11,5.5,4.0,0.32
Stephen Sullivan,40411,TE,CAR,12,17.4,0,40.0,0.0,0,2,0,0.0,0,2,5,0,68.3,66.8,54.8,75.7,54.3,54.9,45,1,33,1.2,1,82,1,2,93.9,77,37.8,31,34.2,5,0,4.9,4,46,21,10.5,23.0,0.6
Keaontay Ingram,77761,HB,ARZ,10,-2.6,4,80.0, ,0,0,0,20.0,1,1,1,0,42.1,79.1,48.1,27.1,49.1,1.6,1,0,24,9.8,6,61,0,4,85.2,52,14.8,9,84.2,5,0,6.6,4,21,34,8.5,5.3,0.4
Bryan Edwards,28486,WR,ATL,7,9.2,0,60.0,0.0,0,1,0,0.0,0,0,2,0,70.5,65.8,50.7, ,50.8,0.0,0,1,10,0.0,0,53,0,3,98.1,52,20.8,11,25.0,5,0,79.2,42,15,11,3.7,5.0,0.29
Luke Farrell,42353,TE,JAX,12,0.5,1,100.0, ,0,0,0,0.0,0,3,15,0,72.1,67.0,70.6,78.7,82.6,77.8,21,0,15,37.0,10,27,0,4,59.3,16,14.8,4,108.3,4,0,7.4,2,40,38,9.5,10.0,2.5
David Johnson,9519,HB,NO,5,0.5,0,100.0, ,0,0,0,0.0,0,3,20,0,72.1,23.6,51.3,37.4,69.9,0.0,0,0,21,14.3,5,35,0,4,85.7,30,0.0,0,115.6,4,0,5.7,2,47,45,11.3,11.8,1.57
Marcus Jones,55717,CB,NE,5,-4.3,3,100.0, ,0,0,0,0.0,0,3,19,0,73.4,89.8,90.7, ,90.2,0.0,0,0,48,0.0,0,14,0,4,78.6,11,71.4,10,158.3,4,1,21.4,3,78,95,23.8,19.5,7.09
Ty Montgomery,9527,HB,NE,1,2.8,0,75.0, ,0,0,0,0.0,0,1,19,0,70.5,70.1,63.9,82.7,71.8,0.0,0,0,7,35.3,6,17,0,3,64.7,11,0.0,0,119.8,4,1,0.0,0,15,8,2.7,5.0,1.36
Lance McCutcheon,61478,WR,LA,8,14.3,0,0.0,0.0,0,2,0, ,0,0,26,0, , ,47.8, ,47.4,0.0,0,0,0,0.0,0,31,0,0,93.5,29,19.4,6,39.6,4,0,80.6,25,0,0, , ,0.0
Ke'Shawn Vaughn,45866,HB,TB,7,-2.8,0,75.0, ,0,0,0,0.0,0,1,30,0,72.1,76.9,57.4,69.5,68.2,0.0,0,0,11,28.6,6,21,0,3,66.7,14,4.8,1,84.4,4,0,4.8,1,19,28,9.3,6.3,1.36
Blake Bell,9550,TE,KC,4,6.0,0,75.0,100.0,1,1,0,0.0,0,1,16,0,70.5,65.8,60.7,69.3,61.7,82.4,14,0,17,5.9,1,17,0,3,94.1,16,11.8,2,129.2,4,1,5.9,1,24,9,3.0,8.0,1.5
Devin Asiasi,40294,TE,CIN,9,13.8,0,50.0, ,0,0,0,0.0,0,0,7,0,68.3,66.8,45.9,58.6,41.8,88.5,54,0,6,26.2,16,61,2,2,67.2,41,4.9,3,56.3,4,0,4.9,3,5,0,0.0,2.5,0.12
Tim Jones,61669,WR,JAX,15,1.3,2,75.0, ,0,0,0,25.0,1,1,15,0,36.8,65.8,50.8, ,49.6,1.5,1,0,20,0.0,0,66,0,3,92.4,61,22.7,15,95.8,4,0,75.8,50,30,22,7.3,10.0,0.49
Spencer Brown,57441,HB,CAR,2,0.0,1,50.0, ,0,0,0,33.3,1,0,5,0,29.9,73.4,57.6,43.6,42.0,0.0,0,0,9,18.2,4,22,0,2,81.8,18,4.5,1,56.3,4,0,0.0,0,10,12,6.0,5.0,0.56
Keith Kirkwood,48017,WR,NO,5,13.8,0,50.0,50.0,1,2,0,33.3,1,1,20,0,29.9,64.0,54.5, ,47.4,1.4,1,0,14,0.0,0,73,1,2,95.9,70,64.4,47,62.5,4,0,34.2,25,18,3,1.5,9.0,0.26
Jesper Horsted,91465,TE,LV,7,6.8,0,75.0,50.0,1,2,0,0.0,0,0,23,0,70.5,65.8,59.6,73.0,57.1,34.3,12,0,9,14.3,5,35,0,3,74.3,26,51.4,18,84.4,4,0,14.3,5,19,5,1.7,6.3,0.73
Juwann Winfree,38275,WR,GB,3,13.5,0,25.0, ,0,0,0,50.0,1,1,12,0,29.9,64.0,52.1, ,52.3,0.0,0,0,17,0.0,0,28,0,1,92.9,26,57.1,16,44.8,4,0,42.9,12,17,5,5.0,17.0,0.65
Austin Trammell,52195,WR,LA,5,7.0,0,50.0,0.0,0,1,0,0.0,0,1,26,0,68.3,64.0,63.5,68.7,62.3,0.0,0,0,8,5.9,2,34,0,2,88.2,30,52.9,18,57.3,4,0,47.1,16,13,0,0.0,6.5,0.43
Jalen Guyton,34164,WR,LAC,3,28.3,0,50.0,50.0,1,2,0,0.0,0,2,27,0,68.3,64.0,72.3, ,67.1,0.0,0,0,54,0.0,0,19,0,2,100.0,19,15.8,3,95.8,4,0,84.2,16,64,8,4.0,32.0,3.37
Penny Hart,13534,WR,SEA,7,7.8,1,75.0,100.0,1,1,2,0.0,0,1,29,0,70.5,65.8,55.5, ,59.1,0.0,0,0,15,0.0,0,23,2,3,87.0,20,60.9,14,85.4,4,0,39.1,9,20,12,4.0,6.7,1.0
Simi Fehoko,84424,WR,DAL,4,12.8,0,75.0,50.0,1,2,0,0.0,0,1,9,0,70.5,65.8,55.7, ,59.5,0.0,0,0,12,0.0,0,24,1,3,95.8,23,37.5,9,89.6,4,0,62.5,15,24,10,3.3,8.0,1.04
Chris Evans,27303,HB,CIN,8,14.0,0,75.0,100.0,2,2,0,0.0,0,2,7,0,70.5,76.2,72.5,77.5,75.0,0.0,0,0,26,11.8,2,17,1,3,82.4,14,41.2,7,143.8,4,1,41.2,7,38,7,2.3,12.7,2.71
Jalen Virgil,41991,WR,DEN,8,18.3,0,50.0, ,0,0,0,0.0,0,2,10,0,68.3,14.3,59.1, ,58.5,0.0,0,0,66,0.0,0,45,0,2,95.6,43,22.2,10,135.4,4,1,77.8,35,75,43,21.5,37.5,1.74
Ihmir Smith-Marsette,61324,WR,KC,5,8.7,1,33.3, ,0,0,0,50.0,1,0,16,1,28.8,14.4,44.0,70.2,42.1,2.8,1,0,15,2.8,1,36,1,1,88.9,32,27.8,10,50.7,3,0,69.4,25,15,5,5.0,15.0,0.47
Trevon Wesco,42018,TE,CHI,11,4.7,1,66.7, ,0,0,0,33.3,1,1,6,0,36.2,65.8,66.7,78.0,53.2,83.6,46,0,23,34.5,19,55,1,2,61.8,34,10.9,6,93.8,3,0,1.8,1,26,14,7.0,13.0,0.76
Tevin Coleman,9506,HB,SF,4,8.0,0,100.0,100.0,1,1,0,0.0,0,2,28,0,70.5,75.4,68.1,29.4,83.1,0.0,0,0,30,5.3,1,19,0,3,89.5,17,21.1,4,158.3,3,1,10.5,2,44,20,6.7,14.7,2.59
Dareke Young,111900,WR,SEA,11,3.3,1,100.0, ,0,0,0,0.0,0,3,29,0,72.1,67.0,58.4,71.9,60.6,0.0,0,0,12,6.8,3,44,1,3,84.1,37,31.8,14,115.3,3,0,63.6,28,35,25,8.3,11.7,0.95
D'Ernest Johnson,45734,HB,CLV,4,-0.3,0,100.0, ,0,0,0,0.0,0,0,8,0,70.5,71.7,66.1,82.1,58.4,4.2,1,0,7,16.7,4,24,0,3,79.2,19,8.3,2,79.2,3,0,0.0,0,7,8,2.7,2.3,0.37
Quintez Cephus,29614,WR,DET,4,5.3,0,66.7, ,0,0,0,0.0,0,1,11,0,68.3,64.0,68.0, ,63.6,0.0,0,0,9,0.0,0,25,0,2,84.0,21,28.0,7,78.5,3,0,68.0,17,15,4,2.0,7.5,0.71
Nsimba Webster,48107,WR,CHI,1,7.0,0,66.7,0.0,0,1,0,0.0,0,1,6,1,68.3,13.3,46.6, ,48.2,0.0,0,0,8,0.0,0,7,0,2,100.0,7,0.0,0,77.1,3,0,100.0,7,14,5,2.5,7.0,2.0
Adam Prentice,35639,FB,NO,10,-3.3,0,100.0, ,0,0,0,0.0,0,1,20,1,70.5,18.2,54.0,76.5,33.6,8.6,3,0,4,37.1,13,35,0,3,60.0,21,5.7,2,79.2,3,0,8.6,3,9,19,6.3,3.0,0.43
Braylon Sanders,61457,WR,MIA,3,13.3,0,66.7, ,0,0,0,0.0,0,0,17,1,68.3,13.3,50.6, ,48.6,0.0,0,0,13,0.0,0,19,0,2,100.0,19,26.3,5,81.3,3,0,73.7,14,17,4,2.0,8.5,0.89
Isaiah Spiller,99146,HB,LAC,5,-3.3,1,100.0, ,0,0,0,0.0,0,0,27,0,70.5,77.0,49.8,22.5,63.6,0.0,0,0,8,26.7,8,30,0,3,73.3,22,3.3,1,84.7,3,0,0.0,0,13,23,7.7,4.3,0.59
Maxx Williams,9488,TE,ARZ,11,4.0,0,100.0,100.0,2,2,0,0.0,0,0,1,0,70.5,65.8,56.6,56.6,49.6,78.9,56,0,7,35.2,25,71,1,3,62.0,44,9.9,7,91.7,3,0,1.4,1,18,6,2.0,6.0,0.41
Michael Burton,9601,FB,KC,12,-0.7,0,66.7, ,0,0,0,0.0,0,0,16,0,68.3,72.8,70.4,67.5,71.6,22.2,4,0,9,55.6,10,18,0,2,38.9,7,0.0,0,72.9,3,0,0.0,0,11,8,4.0,5.5,1.57
Jonathan Ward,25859,HB,TEN,2,1.3,1,66.7, ,0,0,0,0.0,0,1,31,0,68.3,71.9,73.1, ,71.5,0.0,0,0,4,0.0,0,5,0,2,100.0,5,0.0,0,70.1,3,0,20.0,1,7,4,2.0,3.5,1.4
John Brown,8726,WR,BUF,4,44.0,0,33.3,0.0,0,1,0,0.0,0,1,4,0,64.7,61.2,63.3, ,62.7,0.0,0,1,42,0.0,0,27,0,1,96.3,26,11.1,3,81.9,3,1,88.9,24,42,0,0.0,42.0,1.62
Ben Ellefson,27766,TE,MIN,4,5.3,0,100.0, ,0,0,0,0.0,0,2,18,0,70.5,65.8,79.1,72.2,89.5,90.0,18,0,12,65.0,13,20,0,3,30.0,6,0.0,0,102.8,3,0,5.0,1,26,10,3.3,8.7,4.33
Jalen Tolbert,61637,WR,DAL,7,15.7,0,66.7,100.0,1,1,0,0.0,0,0,9,0,68.3,64.0,48.7,62.3,50.7,0.0,0,0,8,2.3,1,44,1,2,90.9,40,11.4,5,74.3,3,0,88.6,39,12,0,0.0,6.0,0.3
Miles Boykin,48209,WR,PIT,11,14.7,0,66.7,100.0,1,1,0,0.0,0,1,25,0,68.3,64.0,63.1,62.1,57.1,6.5,2,0,11,3.2,1,31,1,2,93.5,29,25.8,8,72.9,3,0,67.7,21,11,0,0.0,5.5,0.38
Jason Cabinda,50714,FB,DET,8,5.7,0,33.3, ,0,0,0,50.0,1,1,11,0,28.9,64.6,48.5,52.1,39.5,7.3,3,0,5,36.6,15,41,1,1,56.1,23,14.6,6,42.4,3,0,14.6,6,5,2,2.0,5.0,0.22
Julius Chestnut,109239,HB,TEN,3,0.3,1,100.0, ,0,0,0,0.0,0,1,31,0,70.5,78.3,63.4,72.4,71.6,0.0,0,0,33,5.3,1,19,0,3,94.7,18,5.3,1,118.8,3,0,0.0,0,41,40,13.3,13.7,2.28
Lil'Jordan Humphrey,42247,WR,NE,5,5.7,0,66.7, ,0,0,0,0.0,0,0,19,0,68.3,64.0,57.8, ,53.1,2.2,1,0,11,0.0,0,46,1,2,95.7,44,80.4,37,85.4,3,0,17.4,8,20,15,7.5,10.0,0.45
Kendall Blanton,47311,TE,LA,4,6.0,0,100.0, ,0,0,0,0.0,0,1,26,0,68.3,64.0,70.1,75.5,83.4,76.9,10,0,28,30.8,4,13,0,2,69.2,9,7.7,1,118.8,2,0,15.4,2,35,23,11.5,17.5,3.89
Caleb Huntley,57156,HB,ATL,11,-2.5,0,100.0, ,0,0,0,0.0,0,0,2,0,68.3,57.3,86.9,39.9,53.4,0.0,0,0,2,14.3,5,35,0,2,82.9,29,2.9,1,79.2,2,0,2.9,1,3,8,4.0,1.5,0.1
KaVontae Turpin,47658,WR,DAL,13,6.0,0,100.0,100.0,1,1,0,0.0,0,0,9,0,68.3,90.4,53.0, ,52.5,0.0,0,0,9,0.0,0,27,0,2,96.3,26,88.9,24,102.1,2,0,11.1,3,17,5,2.5,8.5,0.65
Anthony McFarland Jr.,57289,HB,PIT,1,-1.5,0,100.0, ,0,0,0,0.0,0,1,25,0,68.3,72.3,71.5, ,65.4,0.0,0,0,12,0.0,0,11,0,2,100.0,11,9.1,1,89.6,2,0,0.0,0,11,14,7.0,5.5,1.0
Drew Sample,47259,TE,CIN,2,-1.0,0,100.0, ,0,0,0,0.0,0,0,7,0,68.3,64.0,52.3,56.4,53.9,66.7,14,0,2,42.9,9,21,0,2,57.1,12,0.0,0,79.2,2,0,19.0,4,-2,0,0.0,-1.0,-0.17
Larry Rountree III,57308,HB,LAC,3,-7.5,0,100.0, ,0,0,0,0.0,0,1,27,0,68.3,75.5,55.1,73.0,75.6,0.0,0,0,13,14.3,1,7,0,2,85.7,6,0.0,0,95.8,2,0,0.0,0,14,29,14.5,7.0,2.33
Gus Edwards,46027,HB,BLT,10,-1.0,0,50.0, ,0,0,0,0.0,0,1,3,0,64.7,63.5,82.7,59.5,53.8,0.0,0,0,13,27.1,13,48,0,1,72.9,35,12.5,6,70.8,2,0,4.2,2,13,18,18.0,13.0,0.37
Benny Snell Jr.,45954,HB,PIT,3,-1.5,1,100.0, ,0,0,0,0.0,0,1,25,0,68.3,78.6,84.0,35.6,74.2,0.0,0,0,11,25.0,5,20,0,2,65.0,13,0.0,0,102.1,2,0,0.0,0,17,20,10.0,8.5,1.31
Trayveon Williams,45775,HB,CIN,6,10.0,1,100.0, ,0,0,0,0.0,0,1,7,0,68.3,81.1,82.3,80.9,81.6,0.0,0,0,24,17.4,4,23,0,2,78.3,18,8.7,2,118.8,2,0,13.0,3,30,10,5.0,15.0,1.67
Sean McKeon,42266,TE,DAL,13,2.0,0,100.0, ,0,0,0,0.0,0,1,9,0,68.3,64.0,47.8,81.0,58.9,64.7,22,0,10,35.3,12,34,0,2,64.7,22,0.0,0,89.6,2,0,5.9,2,11,7,3.5,5.5,0.5
Charlie Woerner,42257,TE,SF,13,21.5,0,0.0, ,0,0,0,100.0,1,0,28,0,27.9, ,44.1,68.6,37.2,67.9,38,0,0,30.4,17,56,1,0,64.3,36,21.4,12,39.6,2,0,10.7,6,0,0, , ,0.0
Kene Nwangwu,40547,HB,MIN,3,0.0,0,100.0, ,0,0,0,0.0,0,1,18,0,68.3,84.9,56.4,11.2,73.3,0.0,0,0,16,22.2,2,9,0,2,77.8,7,0.0,0,110.4,2,0,0.0,0,21,21,10.5,10.5,3.0
Jaelon Darden,61522,WR,CLV,8,5.5,0,100.0, ,0,0,0,0.0,0,1,8,0,68.3,89.0,52.9, ,57.2,0.0,0,0,25,0.0,0,43,1,2,93.0,40,39.5,17,118.8,2,0,60.5,26,26,15,7.5,13.0,0.65
Feleipe Franks,40217,QB,ATL,8,27.0,0,0.0,0.0,0,1,0, ,0,0,2,0, ,61.9,47.5,74.3,46.0,15.4,4,0,0,11.5,3,26,1,0,88.5,23,46.2,12,39.6,2,0,30.8,8,0,0, , ,0.0
Daylen Baldwin,64309,WR,CLV,1,12.5,0,100.0,100.0,1,1,0,0.0,0,2,8,0,68.3,64.0,83.3, ,81.2,0.0,0,0,15,0.0,0,5,0,2,100.0,5,20.0,1,118.8,2,0,80.0,4,25,0,0.0,12.5,5.0
Justin Herbert,28237,QB,LAC,18,-7.0,0,100.0, ,0,0,1,33.3,1,0,27,6, ,74.0,77.9, ,60.0,0.0,0,0,-2,0.0,0,841,2,2,0.1,1,0.0,0,79.2,2,0,0.0,0,-10,4,2.0,-5.0,-10.0
Tanner Conner,22777,TE,MIA,6,6.5,0,0.0, ,0,0,0,100.0,2,0,17,0,25.5, ,30.9, ,29.3,50.0,7,0,0,0.0,0,14,0,0,78.6,11,7.1,1,39.6,2,0,42.9,6,0,0, , ,0.0
Jeremy Ruckert,84029,TE,NYJ,3,4.0,0,50.0, ,0,0,0,50.0,1,0,22,0,28.8,61.2,56.1,78.5,37.1,72.2,13,0,8,16.7,3,18,0,1,77.8,14,11.1,2,60.4,2,0,5.6,1,8,2,2.0,8.0,0.57
Mason Schreck,12007,TE,HST,3,3.5,0,100.0,100.0,1,1,0,0.0,0,0,13,0,68.3,64.0,53.6,66.0,48.0,90.6,29,0,6,25.0,8,32,0,2,71.9,23,3.1,1,79.2,2,0,6.3,2,6,-1,-0.5,3.0,0.26
Pharoh Cooper,10751,WR,ARZ,3,-3.0,0,100.0, ,0,0,0,0.0,0,0,1,0,68.3,83.4,46.8, ,55.5,0.0,0,0,3,0.0,0,13,1,2,100.0,13,61.5,8,79.2,2,0,23.1,3,6,12,6.0,3.0,0.46
Deonte Harty,91470,WR,NO,4,2.5,0,100.0, ,0,0,0,0.0,0,0,20,0,68.3,26.0,47.9, ,49.3,0.0,0,0,9,0.0,0,16,0,2,100.0,16,37.5,6,93.8,2,0,62.5,10,13,8,4.0,6.5,0.81
Jason Moore,91472,WR,LAC,6,13.0,0,50.0,0.0,0,1,0,0.0,0,0,27,0,64.7,61.2,50.1, ,50.3,2.6,1,0,5,0.0,0,38,0,1,92.1,35,15.8,6,56.3,2,0,81.6,31,5,0,0.0,5.0,0.14
Mike Davis,9559,HB,BLT,7,-3.5,0,100.0, ,0,0,0,0.0,0,0,3,0,68.3,20.6,42.7,81.0,55.9,0.0,0,0,7,13.6,3,22,0,2,81.8,18,18.2,4,79.2,2,0,4.5,1,4,11,5.5,2.0,0.22
Keith Smith,9302,FB,ATL,16,1.0,0,50.0, ,0,0,0,0.0,0,0,2,0,64.7,70.5,53.8,56.0,51.5,18.4,14,0,8,48.7,37,76,0,1,47.4,36,6.6,5,60.4,2,0,10.5,8,8,8,8.0,8.0,0.22
Richard Rodgers,8733,TE,LAC,10,4.5,1,50.0, ,0,0,1,0.0,0,0,27,0,64.7,61.2,44.8,82.3,46.7,79.5,35,0,4,40.9,18,44,1,1,59.1,26,4.5,2,56.3,2,0,13.6,6,4,3,3.0,4.0,0.15
Tyrion Davis-Price,99169,HB,SF,4,0.0,0,0.0, ,0,0,0, ,0,0,28,0, ,80.4,53.6, ,49.3,3.4,1,0,0,0.0,0,29,0,0,96.6,28,10.3,3,39.6,2,0,13.8,4,0,0, , ,0.0
Giovani Bernard,7818,HB,TB,1,-4.0,1,100.0, ,0,0,0,0.0,0,0,30,0,68.3,22.1,48.1,31.1,57.0,0.0,0,0,6,23.5,4,17,0,2,76.5,13,5.9,1,79.2,2,0,0.0,0,-1,7,3.5,-0.5,-0.08
Zach Wilson,82096,QB,NYJ,9,4.0,0,100.0, ,0,0,0,0.0,0,1,22,1,64.7,80.6,46.5, ,90.6,0.0,0,0,2,0.0,0,290,1,1,0.3,1,0.0,0,118.8,1,1,0.0,0,2,0,0.0,2.0,2.0
Dwayne Washington,10870,HB,NO,6,1.0,0,100.0, ,0,0,0,0.0,0,0,20,0,64.7,76.4,64.2,65.8,57.0,0.0,0,0,7,7.7,1,13,0,1,84.6,11,0.0,0,95.8,1,0,7.7,1,7,6,6.0,7.0,0.64
Kamu Grugier-Hill,10842,LB,ARZ,1,0.0,0,100.0, ,0,0,0,0.0,0,1,1,0,64.7,61.2,89.6, ,90.3,0.0,0,0,4,0.0,0,1,0,1,100.0,1,0.0,0,83.3,1,0,0.0,0,4,4,4.0,4.0,4.0
Jeff Driskel,10841,QB,HST,6,-2.0,0,100.0, ,0,0,0,0.0,0,0,13,0,64.7,80.7,68.0, ,57.3,0.0,0,0,4,0.0,0,29,0,1,17.2,5,0.0,0,83.3,1,0,17.2,5,4,6,6.0,4.0,0.8
Penei Sewell,81788,T,DET,17,2.0,0,100.0, ,0,0,1,0.0,0,1,11,0,64.7,61.2,80.6,74.2,76.3,0.2,1,0,9,99.7,663,665,10,1,0.2,1,0.3,2,104.2,1,0,0.0,0,9,7,7.0,9.0,9.0
Erik Ezukanma,78148,WR,MIA,1,-4.0,0,100.0, ,0,0,0,0.0,0,0,17,0,64.7,61.2,59.7, ,59.6,0.0,0,0,3,0.0,0,3,0,1,100.0,3,66.7,2,79.2,1,0,33.3,1,3,7,7.0,3.0,1.0
Godwin Igwebuike,49166,HB,SEA,1,2.0,0,100.0, ,0,0,0,0.0,0,0,29,0,64.7,79.6,66.4, ,65.4,0.0,0,0,3,0.0,0,1,0,1,100.0,1,0.0,0,79.2,1,0,0.0,0,3,1,1.0,3.0,3.0
Maurice Alexander,33465,WR,DET,3,2.0,0,100.0, ,0,0,0,0.0,0,0,11,0,64.7,72.9,57.2, ,57.5,0.0,0,0,7,0.0,0,6,0,1,83.3,5,16.7,1,95.8,1,0,83.3,5,7,5,5.0,7.0,1.4
Jaret Patterson,77745,HB,WAS,1,4.0,0,0.0, ,0,0,0, ,0,0,32,0,64.7,78.1,60.9, ,56.5,0.0,0,0,0,0.0,0,12,0,0,83.3,10,0.0,0,39.6,1,0,8.3,1,0,0, , ,0.0
Jared Goff,10635,QB,DET,17,-7.0,0,100.0, ,0,0,0,0.0,0,0,11,6, ,64.3,72.4, ,58.4,0.0,0,0,5,0.0,0,664,1,1,0.0,0,0.0,0,87.5,1,0,0.0,0,5,12,12.0,5.0,
Ronald Jones,34001,HB,KC,4,0.0,0,100.0, ,0,0,0,0.0,0,1,16,0,64.7,76.7,69.1, ,61.9,0.0,0,0,22,0.0,0,17,0,1,100.0,17,5.9,1,118.8,1,0,0.0,0,22,22,22.0,22.0,1.29
Jacob Harris,34255,WR,LA,2,3.0,0,100.0, ,0,0,0,0.0,0,1,26,0,64.7,61.2,73.7, ,75.9,0.0,0,0,6,0.0,0,2,0,1,100.0,2,0.0,0,91.7,1,0,0.0,0,6,3,3.0,6.0,3.0
Tyron Johnson,34427,WR,HST,4,-2.0,0,100.0, ,0,0,0,0.0,0,0,13,0,64.7,65.7,54.2, ,53.6,0.0,0,0,8,0.0,0,19,0,1,94.7,18,0.0,0,100.0,1,0,100.0,19,8,10,10.0,8.0,0.44
Kirk Merritt,35096,WR,NO,3,22.0,0,0.0, ,0,0,0, ,0,0,20,0, , ,55.0, ,55.3,0.0,0,0,0,0.0,0,8,0,0,87.5,7,37.5,3,39.6,1,0,62.5,5,0,0, , ,0.0
Ty'Son Williams,38287,HB,ARZ,1,-2.0,0,100.0, ,0,0,0,0.0,0,0,1,0,64.7,61.2,61.7, ,64.5,0.0,0,0,5,0.0,0,2,0,1,100.0,2,0.0,0,87.5,1,0,0.0,0,5,7,7.0,5.0,2.5
Russell Wilson,7077,QB,DEN,15,7.0,0,100.0, ,0,0,0,0.0,0,0,10,4, ,85.5,66.2, , ,0.0,0,0,1,0.0,0,613,4,1,0.0,0,0.0,0,79.2,1,0,0.0,0,1,-6,-6.0,1.0,
DJ Turner,47663,WR,LV,6,-3.0,0,0.0, ,0,0,0,100.0,1,0,23,0,27.9,75.0,41.8, ,42.0,0.0,0,0,0,0.0,0,8,0,0,100.0,8,50.0,4,39.6,1,0,50.0,4,0,0, , ,0.0
Mason Kinsey,115664,WR,TEN,1,3.0,0,100.0, ,0,0,0,0.0,0,0,31,0,64.7,72.9,55.8, ,55.9,0.0,0,0,3,0.0,0,9,0,1,100.0,9,88.9,8,79.2,1,0,11.1,1,3,0,0.0,3.0,0.33
Patrick Taylor Jr.,40448,HB,GB,5,-1.0,0,100.0, ,0,0,0,0.0,0,1,12,0,64.7,73.6,61.6,24.2,74.9,14.3,2,0,17,21.4,3,14,0,1,78.6,11,0.0,0,118.8,1,0,7.1,1,17,18,18.0,17.0,1.55
Cody White,61448,WR,PIT,1,1.0,0,100.0, ,0,0,0,0.0,0,0,25,0,64.7,61.2,71.1, ,61.0,0.0,0,0,2,0.0,0,1,0,1,100.0,1,100.0,1,79.2,1,0,0.0,0,2,1,1.0,2.0,2.0
Darrynton Evans,40692,HB,CHI,4,2.0,1,100.0, ,0,0,0,0.0,0,1,6,0,68.3,75.5,54.2,76.3,60.4,6.3,2,0,33,12.5,4,32,0,1,84.4,27,15.6,5,118.8,1,0,0.0,0,33,31,31.0,33.0,1.22
Josh Ali,61359,WR,ATL,2,49.0,0,0.0, ,0,0,0, ,0,0,2,0, , ,55.6, ,56.2,0.0,0,0,0,0.0,0,5,0,0,100.0,5,80.0,4,39.6,1,0,20.0,1,0,0, , ,0.0
Jalen Camp,40986,WR,HST,2,7.0,0,100.0,100.0,1,1,0,0.0,0,1,13,0,64.7,61.2,67.0, ,67.8,0.0,0,0,7,0.0,0,8,0,1,87.5,7,37.5,3,95.8,1,0,62.5,5,7,0,0.0,7.0,1.0
Frank Darby,40988,WR,ATL,4,15.0,0,100.0, ,0,0,0,0.0,0,1,2,0,64.7,61.2,62.0, ,59.2,0.0,0,0,15,0.0,0,23,0,1,91.3,21,17.4,4,118.8,1,0,82.6,19,15,0,0.0,15.0,0.71
Khari Blasingame,44889,FB,CHI,16,-3.0,0,0.0, ,0,0,0, ,0,0,6,0, , ,59.6,79.4,43.6,30.4,17,0,0,37.5,21,56,0,0,57.1,32,12.5,7,39.6,1,0,7.1,4,0,0, , ,0.0
Jake Tonges,60864,TE,CHI,3,14.0,0,0.0, ,0,0,0, ,0,0,6,0, , ,52.5, ,55.7,33.3,1,0,0,0.0,0,3,0,0,100.0,3,33.3,1,39.6,1,0,33.3,1,0,0, , ,0.0
Hunter Long,60859,TE,MIA,10,2.0,0,0.0, ,0,0,1, ,0,0,17,0,64.7,61.2,57.5,50.5,57.2,74.4,32,0,0,48.8,21,43,1,0,48.8,21,14.0,6,39.6,1,0,11.6,5,0,0, , ,0.0
Keke Coutee,47698,WR,IND,2,10.0,0,100.0, ,0,0,0,0.0,0,0,14,1,64.7,30.0,37.5, ,43.9,0.0,0,0,20,0.0,0,2,0,1,100.0,2,100.0,2,118.8,1,0,0.0,0,20,10,10.0,20.0,10.0
James Washington,47792,WR,DAL,2,6.0,0,0.0,0.0,0,1,0, ,0,0,9,0, , ,52.3, ,53.8,0.0,0,0,0,0.0,0,10,0,0,90.0,9,0.0,0,39.6,1,0,100.0,10,0,0, , ,0.0
Bailey Zappe,60396,QB,NE,4,-8.0,0,100.0, ,0,0,0,0.0,0,0,19,2, ,26.1,67.1, , ,0.0,0,0,-6,0.0,0,109,3,1,0.0,0,0.0,0,79.2,1,0,0.0,0,-6,2,2.0,-6.0,
Devine Ozigbo,45903,HB,DEN,3,-5.0,0,100.0, ,0,0,0,0.0,0,0,10,0,64.7,68.2,53.5,74.4,61.5,0.0,0,0,3,16.7,1,6,0,1,83.3,5,0.0,0,79.2,1,0,0.0,0,3,8,8.0,3.0,0.6
David Bakhtiari,7891,T,GB,11,4.0,0,0.0, ,0,0,1, ,0,0,12,0, , ,79.8,87.8,60.0,0.0,0,1,0,99.7,339,340,5,0,0.3,1,0.0,0,0.0,1,0,0.0,0,0,0, , ,0.0
Tommy Sweeney,47216,TE,BUF,4,-1.0,0,100.0, ,0,0,0,0.0,0,1,4,0,64.7,61.2,56.3,21.4,56.9,57.7,15,0,7,19.2,5,26,1,1,80.8,21,19.2,5,95.8,1,0,3.8,1,7,8,8.0,7.0,0.33
Stanley Morgan Jr.,48110,WR,CIN,8,0.0,0,0.0, ,0,0,0, ,0,0,7,0, , ,65.3,68.1,51.8,11.8,2,0,0,5.9,1,17,0,0,82.4,14,23.5,4,39.6,1,0,64.7,11,0,0, , ,0.0
Jake Gervase,49103,LB,LA,2,6.0,0,100.0, ,0,0,0,0.0,0,1,26,0,64.7,65.7,77.6,62.7,90.3,0.0,0,0,12,50.0,1,2,0,1,50.0,1,0.0,0,116.7,1,0,0.0,0,12,6,6.0,12.0,12.0
Josh Gordon,7618,WR,TEN,2,13.0,0,0.0, ,0,0,0, ,0,0,31,0, , ,47.0, ,53.2,0.0,0,0,0,0.0,0,10,1,0,90.0,9,40.0,4,39.6,1,0,60.0,6,0,0, , ,0.0
Noah Togiai,47282,TE,PHI,1,3.0,0,0.0, ,0,0,0,100.0,1,0,24,0,27.9, ,26.7,20.4,28.1,100.0,4,0,0,50.0,2,4,0,0,50.0,2,0.0,0,39.6,1,0,0.0,0,0,0, , ,0.0
Tanner Gentry,12170,WR,BUF,3,7.0,0,0.0, ,0,0,0, ,0,0,4,0, , ,46.9, ,52.6,0.0,0,0,0,0.0,0,11,0,0,100.0,11,18.2,2,39.6,1,0,81.8,9,0,0, , ,0.0
Marcus Kemp,12137,WR,KC,3,11.0,0,100.0, ,0,0,0,0.0,0,1,16,0,64.7,61.2,61.8, ,61.0,0.0,0,0,13,0.0,0,20,0,1,95.0,19,35.0,7,118.8,1,0,65.0,13,13,2,2.0,13.0,0.68
C.J. Board,12088,WR,TEN,1,6.0,0,100.0, ,0,0,0,0.0,0,0,31,0,64.7,28.7,54.4, ,54.6,0.0,0,0,6,0.0,0,10,0,1,100.0,10,20.0,2,91.7,1,0,80.0,8,6,0,0.0,6.0,0.6
J.J. Taylor,25512,HB,NE,1,3.0,1,100.0, ,0,0,0,0.0,0,0,19,0,64.7,73.6,51.3, ,70.8,0.0,0,0,8,0.0,0,7,0,1,100.0,7,0.0,0,100.0,1,0,0.0,0,8,5,5.0,8.0,1.14
Kirk Cousins,7102,QB,MIN,18,-6.0,1,100.0, ,0,0,0,0.0,0,0,18,5,64.7,71.1,79.3, ,53.6,0.0,0,0,-2,0.0,0,789,8,1,0.6,5,0.0,0,79.2,1,0,0.0,0,-2,4,4.0,-2.0,-0.4
Tom Brady,698,QB,TB,18,15.0,0,0.0, ,0,0,0, ,0,0,30,4, ,75.1,77.5, ,59.9,0.0,0,1,0,0.0,0,879,3,0,0.1,1,0.0,0,0.0,1,0,0.1,1,0,0, , ,0.0
Tyler Badie,83714,HB,DEN,1,-7.0,0,100.0, ,0,0,0,0.0,0,1,10,0,64.7,64.6,61.2, ,68.9,0.0,0,0,24,0.0,0,5,0,1,80.0,4,0.0,0,158.3,1,1,20.0,1,24,31,31.0,24.0,6.0
Tyler Mabry,25705,TE,SEA,2,5.0,0,100.0, ,0,0,0,0.0,0,1,29,0,64.7,61.2,80.9,65.8,84.6,33.3,1,0,7,33.3,1,3,0,1,66.7,2,0.0,0,135.4,1,1,33.3,1,7,2,2.0,7.0,3.5
Patrick Mahomes,11765,QB,KC,20,-7.0,0,100.0, ,0,0,0,0.0,0,0,16,3, ,81.0,92.0, , ,0.0,0,0,6,0.0,0,885,1,1,0.0,0,0.0,0,91.7,1,0,0.0,0,6,13,13.0,6.0,
